[2017-07-25 08:09:44] local.INFO: 127.0.0.1-frontapi/v1/getPetDetails-Bearer RL1y825npfV62i5Rx4LGgId92BjMt6PCtQmqzuus8unXVvQUjDfzyxVOYahF {"request ":[],"response":"[object] (stdClass: {\"status\":0,\"message\":\"Valid Response\",\"message_ar\":\"Valid Response\",\"data\":[{\"id\":290,\"name\":\"QA Service Pet\",\"dob\":\"13-07-2017\",\"breed\":1,\"gender\":0,\"height\":\"147\",\"photo\":\"http://localhost:8000/uploads/pets/20170713164742.png\",\"provider_id\":29,\"temperament\":\"\",\"energy_level\":\"High\",\"maintenance\":\"High\",\"good_with_children\":\"Good\",\"daily_exercises\":\"No\",\"notes\":\"sdf\",\"origin\":\"Affenpinscher\",\"size\":2,\"chipno\":\"Chipno\",\"weight\":\"147\",\"grooming\":\"1 Weeks\",\"isadopted\":0,\"likes\":0,\"cough\":\"0000-00-00\",\"missyou\":1,\"status\":1,\"pet_status\":\"Foster\",\"neutered\":0,\"spayed\":0,\"adopt_comments\":\"\",\"disabled_comments\":\"\",\"disabled_question\":\"\",\"last_groom_appointment\":\"2017-07-31\",\"next_groom_appointment\":\"2017-07-31\",\"created_at\":\"2017-07-06 05:17:43\",\"veternary\":\"\",\"groom\":\"\",\"breedname\":\"Cat\",\"next_veternary_date\":\"2017-07-13 05:17:43\",\"next_groom_date\":\"2017-07-13 05:17:43\"},{\"id\":291,\"name\":\"QA Service Pet\",\"dob\":\"13-07-2017\",\"breed\":1,\"gender\":0,\"height\":\"147\",\"photo\":\"http://localhost:8000/uploads/pets/20170713165722.png\",\"provider_id\":29,\"temperament\":\"\",\"energy_level\":\"High\",\"maintenance\":\"High\",\"good_with_children\":\"Good\",\"daily_exercises\":\"No\",\"notes\":\"sdf\",\"origin\":\"Affenpinscher\",\"size\":2,\"chipno\":\"Chipno\",\"weight\":\"147\",\"grooming\":\"1 Weeks\",\"isadopted\":0,\"likes\":0,\"cough\":\"0000-00-00\",\"missyou\":1,\"status\":1,\"pet_status\":\"Foster\",\"neutered\":0,\"spayed\":0,\"adopt_comments\":\"\",\"disabled_comments\":\"\",\"disabled_question\":\"\",\"last_groom_appointment\":\"0000-00-00\",\"next_groom_appointment\":\"0000-00-00\",\"created_at\":\"2017-07-14 05:27:22\",\"veternary\":\"2017-07-18 11:30:00\",\"groom\":\"\",\"breedname\":\"Cat\",\"next_veternary_date\":\"2017-07-18 11:30:00\",\"next_groom_date\":\"2017-07-21 05:27:22\"}]})"} 
[2017-07-25 11:52:14] local.INFO: 127.0.0.1-frontapi/v1/getGlobalMap- {"request ":{"type":["1"]},"response":null} 
[2017-07-25 11:52:28] local.INFO: 127.0.0.1-frontapi/v1/getGlobalMap- {"request ":{"type":["1"]},"response":null} 
[2017-07-25 11:54:48] local.INFO: 127.0.0.1-frontapi/v1/getGlobalMap- {"request ":{"type":["1"]},"response":null} 
[2017-07-25 11:55:25] local.INFO: 127.0.0.1-frontapi/v1/getGlobalMap- {"request ":{"type":["1"]},"response":null} 
[2017-07-25 11:55:31] local.INFO: 127.0.0.1-frontapi/v1/getGlobalMap- {"request ":{"type":["1"]},"response":null} 
[2017-07-25 11:56:34] local.INFO: 127.0.0.1-frontapi/v1/getGlobalMap- {"request ":{"type":["1"]},"response":null} 
[2017-07-25 12:10:12] local.INFO: 127.0.0.1-frontapi/v1/getGlobalMap- {"request ":{"type":["1"]},"response":null} 
[2017-07-25 12:10:14] local.INFO: 127.0.0.1-frontapi/v1/getGlobalMap- {"request ":{"type":["1"]},"response":null} 
[2017-07-25 12:10:14] local.INFO: 127.0.0.1-frontapi/v1/getGlobalMap- {"request ":{"type":["1"]},"response":null} 
[2017-07-25 12:10:15] local.INFO: 127.0.0.1-frontapi/v1/getGlobalMap- {"request ":{"type":["1"]},"response":null} 
[2017-07-25 12:10:17] local.INFO: 127.0.0.1-frontapi/v1/getGlobalMap- {"request ":{"type":["1"]},"response":null} 
[2017-07-25 12:10:18] local.INFO: 127.0.0.1-frontapi/v1/getGlobalMap- {"request ":{"type":["1"]},"response":null} 
[2017-07-25 12:10:19] local.INFO: 127.0.0.1-frontapi/v1/getGlobalMap- {"request ":{"type":["1"]},"response":null} 
[2017-07-25 12:10:45] local.INFO: 127.0.0.1-frontapi/v1/getMyProfile-Bearer RL1y825npfV62i5Rx4LGgId92BjMt6PCtQmqzuus8unXVvQUjDfzyxVOYahF {"request ":[],"response":"[object] (stdClass: {\"status\":0,\"message\":\"Valid Response\",\"message_ar\":\"Valid Response\",\"data\":{\"id\":283,\"firstname\":\"edited\",\"middlename\":\"S\",\"lastname\":\"lastedited\",\"email\":\"tarun123@si-kw.com\",\"gender\":0,\"api_token\":\"RL1y825npfV62i5Rx4LGgId92BjMt6PCtQmqzuus8unXVvQUjDfzyxVOYahF\",\"dob\":\"11/30/-0001\",\"photo\":\"http://localhost:8000/uploads/customer/20170524102328-AeNCc4vHTS.png\",\"mobile\":\"\",\"latitude\":\"\",\"longitude\":\"\",\"block\":\"\",\"street\":\"\",\"judda\":\"\",\"house\":\"\",\"apartment\":\"\",\"address\":\"Oh, this is my new address\",\"area_id\":1,\"status\":1,\"code\":\"\",\"pet\":[{\"id\":290,\"name\":\"QA Service Pet\",\"dob\":\"13-07-2017\",\"breed\":1,\"gender\":0,\"height\":\"147\",\"photo\":\"http://localhost:8000/uploads/pets/20170713164742.png\",\"provider_id\":29,\"temperament\":\"\",\"energy_level\":\"High\",\"maintenance\":\"High\",\"good_with_children\":\"Good\",\"daily_exercises\":\"No\",\"notes\":\"sdf\",\"origin\":\"Affenpinscher\",\"size\":2,\"chipno\":\"Chipno\",\"weight\":\"147\",\"grooming\":\"1 Weeks\",\"isadopted\":0,\"likes\":0,\"cough\":\"0000-00-00\",\"missyou\":1,\"status\":1,\"pet_status\":\"Foster\",\"neutered\":0,\"spayed\":0,\"adopt_comments\":\"\",\"disabled_comments\":\"\",\"disabled_question\":\"\",\"last_groom_appointment\":\"2017-07-31\",\"next_groom_appointment\":\"2017-07-31\",\"created_at\":\"2017-07-06 05:17:43\",\"next_veternary_date\":\"2017-07-13 05:17:43\",\"next_groom_date\":\"2017-07-13 05:17:43\",\"veternary\":\"\",\"groom\":\"\",\"breedname\":\"Cat\"},{\"id\":291,\"name\":\"QA Service Pet\",\"dob\":\"13-07-2017\",\"breed\":1,\"gender\":0,\"height\":\"147\",\"photo\":\"http://localhost:8000/uploads/pets/20170713165722.png\",\"provider_id\":29,\"temperament\":\"\",\"energy_level\":\"High\",\"maintenance\":\"High\",\"good_with_children\":\"Good\",\"daily_exercises\":\"No\",\"notes\":\"sdf\",\"origin\":\"Affenpinscher\",\"size\":2,\"chipno\":\"Chipno\",\"weight\":\"147\",\"grooming\":\"1 Weeks\",\"isadopted\":0,\"likes\":0,\"cough\":\"0000-00-00\",\"missyou\":1,\"status\":1,\"pet_status\":\"Foster\",\"neutered\":0,\"spayed\":0,\"adopt_comments\":\"\",\"disabled_comments\":\"\",\"disabled_question\":\"\",\"last_groom_appointment\":\"0000-00-00\",\"next_groom_appointment\":\"0000-00-00\",\"created_at\":\"2017-07-14 05:27:22\",\"next_veternary_date\":\"2017-07-18 11:30:00\",\"next_groom_date\":\"2017-07-21 05:27:22\",\"veternary\":\"2017-07-18 11:30:00\",\"groom\":\"\",\"breedname\":\"Cat\"}]}})"} 
[2017-07-25 12:10:50] local.INFO: 127.0.0.1-frontapi/v1/getPetDetails-Bearer RL1y825npfV62i5Rx4LGgId92BjMt6PCtQmqzuus8unXVvQUjDfzyxVOYahF {"request ":[],"response":"[object] (stdClass: {\"status\":0,\"message\":\"Valid Response\",\"message_ar\":\"Valid Response\",\"data\":[{\"id\":290,\"name\":\"QA Service Pet\",\"dob\":\"13-07-2017\",\"breed\":1,\"gender\":0,\"height\":\"147\",\"photo\":\"http://localhost:8000/uploads/pets/20170713164742.png\",\"provider_id\":29,\"temperament\":\"\",\"energy_level\":\"High\",\"maintenance\":\"High\",\"good_with_children\":\"Good\",\"daily_exercises\":\"No\",\"notes\":\"sdf\",\"origin\":\"Affenpinscher\",\"size\":2,\"chipno\":\"Chipno\",\"weight\":\"147\",\"grooming\":\"1 Weeks\",\"isadopted\":0,\"likes\":0,\"cough\":\"0000-00-00\",\"missyou\":1,\"status\":1,\"pet_status\":\"Foster\",\"neutered\":0,\"spayed\":0,\"adopt_comments\":\"\",\"disabled_comments\":\"\",\"disabled_question\":\"\",\"last_groom_appointment\":\"2017-07-31\",\"next_groom_appointment\":\"2017-07-31\",\"created_at\":\"2017-07-06 05:17:43\",\"veternary\":\"\",\"groom\":\"\",\"breedname\":\"Cat\",\"next_veternary_date\":\"2017-07-13 05:17:43\",\"next_groom_date\":\"2017-07-13 05:17:43\"},{\"id\":291,\"name\":\"QA Service Pet\",\"dob\":\"13-07-2017\",\"breed\":1,\"gender\":0,\"height\":\"147\",\"photo\":\"http://localhost:8000/uploads/pets/20170713165722.png\",\"provider_id\":29,\"temperament\":\"\",\"energy_level\":\"High\",\"maintenance\":\"High\",\"good_with_children\":\"Good\",\"daily_exercises\":\"No\",\"notes\":\"sdf\",\"origin\":\"Affenpinscher\",\"size\":2,\"chipno\":\"Chipno\",\"weight\":\"147\",\"grooming\":\"1 Weeks\",\"isadopted\":0,\"likes\":0,\"cough\":\"0000-00-00\",\"missyou\":1,\"status\":1,\"pet_status\":\"Foster\",\"neutered\":0,\"spayed\":0,\"adopt_comments\":\"\",\"disabled_comments\":\"\",\"disabled_question\":\"\",\"last_groom_appointment\":\"0000-00-00\",\"next_groom_appointment\":\"0000-00-00\",\"created_at\":\"2017-07-14 05:27:22\",\"veternary\":\"2017-07-18 11:30:00\",\"groom\":\"\",\"breedname\":\"Cat\",\"next_veternary_date\":\"2017-07-18 11:30:00\",\"next_groom_date\":\"2017-07-21 05:27:22\"}]})"} 
[2017-07-25 12:10:59] local.INFO: 127.0.0.1-frontapi/v1/getGlobalMap- {"request ":{"type":["1"]},"response":null} 
[2017-07-25 12:12:07] local.INFO: 127.0.0.1-frontapi/v1/getGlobalMap- {"request ":{"type":["1"]},"response":null} 
[2017-07-25 12:12:31] local.INFO: 127.0.0.1-frontapi/v1/getGlobalMap- {"request ":{"type":["1"]},"response":null} 
[2017-07-25 12:12:46] local.INFO: 127.0.0.1-frontapi/v1/getGlobalMap- {"request ":{"type":["1"]},"response":null} 
[2017-07-25 12:17:44] local.INFO: 127.0.0.1-frontapi/v1/getGlobalMap- {"request ":{"type":["1"]},"response":null} 
[2017-07-25 12:21:02] local.INFO: 127.0.0.1-frontapi/v1/getGlobalMap- {"request ":{"type":["1"]},"response":null} 
[2017-07-25 12:21:04] local.INFO: 127.0.0.1-frontapi/v1/getGlobalMap- {"request ":{"type":["1"]},"response":null} 
[2017-07-25 12:21:04] local.INFO: 127.0.0.1-frontapi/v1/getGlobalMap- {"request ":{"type":["1"]},"response":null} 
[2017-07-25 12:21:22] local.INFO: 127.0.0.1-frontapi/v1/getGlobalMap- {"request ":{"type":["1"]},"response":null} 
[2017-07-25 12:21:23] local.INFO: 127.0.0.1-frontapi/v1/getGlobalMap- {"request ":{"type":["1"]},"response":null} 
[2017-07-25 12:22:37] local.INFO: 127.0.0.1-frontapi/v1/getGlobalMap- {"request ":{"type":["1"]},"response":null} 
[2017-07-25 12:22:37] local.INFO: 127.0.0.1-frontapi/v1/getGlobalMap- {"request ":{"type":["1"]},"response":null} 
[2017-07-25 12:23:11] local.INFO: 127.0.0.1-frontapi/v1/getGlobalMap- {"request ":{"type":["1"]},"response":null} 
[2017-07-25 12:23:12] local.INFO: 127.0.0.1-frontapi/v1/getGlobalMap- {"request ":{"type":["1"]},"response":null} 
[2017-07-25 12:23:39] local.INFO: 127.0.0.1-frontapi/v1/getGlobalMap- {"request ":{"type":["1"]},"response":null} 
[2017-07-25 12:24:54] local.INFO: 127.0.0.1-frontapi/v1/getGlobalMap- {"request ":{"type":["1"]},"response":null} 
[2017-07-25 12:24:55] local.INFO: 127.0.0.1-frontapi/v1/getGlobalMap- {"request ":{"type":["1"]},"response":null} 
[2017-07-25 12:24:57] local.INFO: 127.0.0.1-frontapi/v1/getGlobalMap- {"request ":{"type":["1"]},"response":null} 
[2017-07-25 12:25:05] local.INFO: 127.0.0.1-frontapi/v1/getGlobalMap- {"request ":{"type":["1"]},"response":null} 
[2017-07-25 12:25:06] local.INFO: 127.0.0.1-frontapi/v1/getGlobalMap- {"request ":{"type":["1"]},"response":null} 
[2017-07-25 12:25:14] local.INFO: 127.0.0.1-frontapi/v1/getPetDetails-Bearer RL1y825npfV62i5Rx4LGgId92BjMt6PCtQmqzuus8unXVvQUjDfzyxVOYahF {"request ":[],"response":"[object] (stdClass: {\"status\":0,\"message\":\"Valid Response\",\"message_ar\":\"Valid Response\",\"data\":[{\"id\":290,\"name\":\"QA Service Pet\",\"dob\":\"13-07-2017\",\"breed\":1,\"gender\":0,\"height\":\"147\",\"photo\":\"http://localhost:8000/uploads/pets/20170713164742.png\",\"provider_id\":29,\"temperament\":\"\",\"energy_level\":\"High\",\"maintenance\":\"High\",\"good_with_children\":\"Good\",\"daily_exercises\":\"No\",\"notes\":\"sdf\",\"origin\":\"Affenpinscher\",\"size\":2,\"chipno\":\"Chipno\",\"weight\":\"147\",\"grooming\":\"1 Weeks\",\"isadopted\":0,\"likes\":0,\"cough\":\"0000-00-00\",\"missyou\":1,\"status\":1,\"pet_status\":\"Foster\",\"neutered\":0,\"spayed\":0,\"adopt_comments\":\"\",\"disabled_comments\":\"\",\"disabled_question\":\"\",\"last_groom_appointment\":\"2017-07-31\",\"next_groom_appointment\":\"2017-07-31\",\"created_at\":\"2017-07-06 05:17:43\",\"veternary\":\"\",\"groom\":\"\",\"breedname\":\"Cat\",\"next_veternary_date\":\"2017-07-13 05:17:43\",\"next_groom_date\":\"2017-07-13 05:17:43\"},{\"id\":291,\"name\":\"QA Service Pet\",\"dob\":\"13-07-2017\",\"breed\":1,\"gender\":0,\"height\":\"147\",\"photo\":\"http://localhost:8000/uploads/pets/20170713165722.png\",\"provider_id\":29,\"temperament\":\"\",\"energy_level\":\"High\",\"maintenance\":\"High\",\"good_with_children\":\"Good\",\"daily_exercises\":\"No\",\"notes\":\"sdf\",\"origin\":\"Affenpinscher\",\"size\":2,\"chipno\":\"Chipno\",\"weight\":\"147\",\"grooming\":\"1 Weeks\",\"isadopted\":0,\"likes\":0,\"cough\":\"0000-00-00\",\"missyou\":1,\"status\":1,\"pet_status\":\"Foster\",\"neutered\":0,\"spayed\":0,\"adopt_comments\":\"\",\"disabled_comments\":\"\",\"disabled_question\":\"\",\"last_groom_appointment\":\"0000-00-00\",\"next_groom_appointment\":\"0000-00-00\",\"created_at\":\"2017-07-14 05:27:22\",\"veternary\":\"2017-07-18 11:30:00\",\"groom\":\"\",\"breedname\":\"Cat\",\"next_veternary_date\":\"2017-07-18 11:30:00\",\"next_groom_date\":\"2017-07-21 05:27:22\"}]})"} 
[2017-07-25 12:25:15] local.INFO: 127.0.0.1-frontapi/v1/getPetDetails-Bearer RL1y825npfV62i5Rx4LGgId92BjMt6PCtQmqzuus8unXVvQUjDfzyxVOYahF {"request ":[],"response":"[object] (stdClass: {\"status\":0,\"message\":\"Valid Response\",\"message_ar\":\"Valid Response\",\"data\":[{\"id\":290,\"name\":\"QA Service Pet\",\"dob\":\"13-07-2017\",\"breed\":1,\"gender\":0,\"height\":\"147\",\"photo\":\"http://localhost:8000/uploads/pets/20170713164742.png\",\"provider_id\":29,\"temperament\":\"\",\"energy_level\":\"High\",\"maintenance\":\"High\",\"good_with_children\":\"Good\",\"daily_exercises\":\"No\",\"notes\":\"sdf\",\"origin\":\"Affenpinscher\",\"size\":2,\"chipno\":\"Chipno\",\"weight\":\"147\",\"grooming\":\"1 Weeks\",\"isadopted\":0,\"likes\":0,\"cough\":\"0000-00-00\",\"missyou\":1,\"status\":1,\"pet_status\":\"Foster\",\"neutered\":0,\"spayed\":0,\"adopt_comments\":\"\",\"disabled_comments\":\"\",\"disabled_question\":\"\",\"last_groom_appointment\":\"2017-07-31\",\"next_groom_appointment\":\"2017-07-31\",\"created_at\":\"2017-07-06 05:17:43\",\"veternary\":\"\",\"groom\":\"\",\"breedname\":\"Cat\",\"next_veternary_date\":\"2017-07-13 05:17:43\",\"next_groom_date\":\"2017-07-13 05:17:43\"},{\"id\":291,\"name\":\"QA Service Pet\",\"dob\":\"13-07-2017\",\"breed\":1,\"gender\":0,\"height\":\"147\",\"photo\":\"http://localhost:8000/uploads/pets/20170713165722.png\",\"provider_id\":29,\"temperament\":\"\",\"energy_level\":\"High\",\"maintenance\":\"High\",\"good_with_children\":\"Good\",\"daily_exercises\":\"No\",\"notes\":\"sdf\",\"origin\":\"Affenpinscher\",\"size\":2,\"chipno\":\"Chipno\",\"weight\":\"147\",\"grooming\":\"1 Weeks\",\"isadopted\":0,\"likes\":0,\"cough\":\"0000-00-00\",\"missyou\":1,\"status\":1,\"pet_status\":\"Foster\",\"neutered\":0,\"spayed\":0,\"adopt_comments\":\"\",\"disabled_comments\":\"\",\"disabled_question\":\"\",\"last_groom_appointment\":\"0000-00-00\",\"next_groom_appointment\":\"0000-00-00\",\"created_at\":\"2017-07-14 05:27:22\",\"veternary\":\"2017-07-18 11:30:00\",\"groom\":\"\",\"breedname\":\"Cat\",\"next_veternary_date\":\"2017-07-18 11:30:00\",\"next_groom_date\":\"2017-07-21 05:27:22\"}]})"} 
[2017-07-25 12:25:17] local.INFO: 127.0.0.1-frontapi/v1/getMyProfile-Bearer RL1y825npfV62i5Rx4LGgId92BjMt6PCtQmqzuus8unXVvQUjDfzyxVOYahF {"request ":[],"response":"[object] (stdClass: {\"status\":0,\"message\":\"Valid Response\",\"message_ar\":\"Valid Response\",\"data\":{\"id\":283,\"firstname\":\"edited\",\"middlename\":\"S\",\"lastname\":\"lastedited\",\"email\":\"tarun123@si-kw.com\",\"gender\":0,\"api_token\":\"RL1y825npfV62i5Rx4LGgId92BjMt6PCtQmqzuus8unXVvQUjDfzyxVOYahF\",\"dob\":\"11/30/-0001\",\"photo\":\"http://localhost:8000/uploads/customer/20170524102328-AeNCc4vHTS.png\",\"mobile\":\"\",\"latitude\":\"\",\"longitude\":\"\",\"block\":\"\",\"street\":\"\",\"judda\":\"\",\"house\":\"\",\"apartment\":\"\",\"address\":\"Oh, this is my new address\",\"area_id\":1,\"status\":1,\"code\":\"\",\"pet\":[{\"id\":290,\"name\":\"QA Service Pet\",\"dob\":\"13-07-2017\",\"breed\":1,\"gender\":0,\"height\":\"147\",\"photo\":\"http://localhost:8000/uploads/pets/20170713164742.png\",\"provider_id\":29,\"temperament\":\"\",\"energy_level\":\"High\",\"maintenance\":\"High\",\"good_with_children\":\"Good\",\"daily_exercises\":\"No\",\"notes\":\"sdf\",\"origin\":\"Affenpinscher\",\"size\":2,\"chipno\":\"Chipno\",\"weight\":\"147\",\"grooming\":\"1 Weeks\",\"isadopted\":0,\"likes\":0,\"cough\":\"0000-00-00\",\"missyou\":1,\"status\":1,\"pet_status\":\"Foster\",\"neutered\":0,\"spayed\":0,\"adopt_comments\":\"\",\"disabled_comments\":\"\",\"disabled_question\":\"\",\"last_groom_appointment\":\"2017-07-31\",\"next_groom_appointment\":\"2017-07-31\",\"created_at\":\"2017-07-06 05:17:43\",\"next_veternary_date\":\"2017-07-13 05:17:43\",\"next_groom_date\":\"2017-07-13 05:17:43\",\"veternary\":\"\",\"groom\":\"\",\"breedname\":\"Cat\"},{\"id\":291,\"name\":\"QA Service Pet\",\"dob\":\"13-07-2017\",\"breed\":1,\"gender\":0,\"height\":\"147\",\"photo\":\"http://localhost:8000/uploads/pets/20170713165722.png\",\"provider_id\":29,\"temperament\":\"\",\"energy_level\":\"High\",\"maintenance\":\"High\",\"good_with_children\":\"Good\",\"daily_exercises\":\"No\",\"notes\":\"sdf\",\"origin\":\"Affenpinscher\",\"size\":2,\"chipno\":\"Chipno\",\"weight\":\"147\",\"grooming\":\"1 Weeks\",\"isadopted\":0,\"likes\":0,\"cough\":\"0000-00-00\",\"missyou\":1,\"status\":1,\"pet_status\":\"Foster\",\"neutered\":0,\"spayed\":0,\"adopt_comments\":\"\",\"disabled_comments\":\"\",\"disabled_question\":\"\",\"last_groom_appointment\":\"0000-00-00\",\"next_groom_appointment\":\"0000-00-00\",\"created_at\":\"2017-07-14 05:27:22\",\"next_veternary_date\":\"2017-07-18 11:30:00\",\"next_groom_date\":\"2017-07-21 05:27:22\",\"veternary\":\"2017-07-18 11:30:00\",\"groom\":\"\",\"breedname\":\"Cat\"}]}})"} 
[2017-07-25 12:25:25] local.INFO: 127.0.0.1-frontapi/v1/getGlobalMap- {"request ":{"type":["1"]},"response":null} 
[2017-07-25 12:25:33] local.INFO: 127.0.0.1-frontapi/v1/getGlobalMap- {"request ":{"type":["1"]},"response":null} 
[2017-07-25 12:28:26] local.INFO: 127.0.0.1-frontapi/v1/getGlobalMap-Bearer RL1y825npfV62i5Rx4LGgId92BjMt6PCtQmqzuus8unXVvQUjDfzyxVOYahF {"request ":{"type":["1"]},"response":"[object] (stdClass: {\"status\":0,\"message\":\"Valid Response\",\"message_ar\":\"Valid Response\",\"data\":{\"providers\":[{\"id\":26,\"name\":\"PET CARE HOUSE\",\"name_ar\":\"PET HOUSE CARE\",\"ptype\":\"Provider\",\"about\":\"\",\"about_ar\":\"\",\"address\":\"ASDFGH\",\"area\":\"1\",\"photo\":\"\",\"icon\":\"\",\"email\":\"kathak@mxicoders.com\",\"latitude\":\"27.6648\",\"start\":\"05/25/2017\",\"end\":\"05/25/2018\",\"longitude\":\"-81.5309\",\"contact\":\"965-\",\"website\":\"\",\"facebook\":\"\",\"twitter\":\"\",\"instagram\":\"\",\"status\":1,\"total_cancelled\":0,\"total_booked\":0,\"stars\":10,\"count_votes\":2,\"areas\":{\"id\":1,\"country_id\":114,\"name\":\"Abdullah Al-Salem\",\"name_ar\":\"عبدالله السالم \",\"status\":1},\"type\":[{\"id\":1,\"dis_name\":\"Veternary\"},{\"id\":2,\"dis_name\":\"Groomer\"},{\"id\":4,\"dis_name\":\"Trainer\"},{\"id\":5,\"dis_name\":\"Kennel\"}]},{\"id\":28,\"name\":\"QA Provider\",\"name_ar\":\"QA Provider\",\"ptype\":\"Provider\",\"about\":\"QA Provider offers - vet, groomer, walker, trainer, kennel\",\"about_ar\":\"QA Provider offers - vet, groomer, walker, trainer, kennel\",\"address\":\"Kuwait city\",\"area\":\"1\",\"photo\":\"http://localhost:8000/uploads/provider/20170712101713.png\",\"icon\":\"http://localhost:8000/uploads/provider/20170712101713.png\",\"email\":\"qa@si-kw.com\",\"latitude\":\"27.6648\",\"start\":\"05/25/2017\",\"end\":\"05/30/2018\",\"longitude\":\"-81.5309\",\"contact\":\"965-6969685\",\"website\":\"www.test\",\"facebook\":\"www.facebook.com\",\"twitter\":\"www.twitter.com\",\"instagram\":\"www.instagram.com\",\"status\":1,\"total_cancelled\":0,\"total_booked\":0,\"stars\":10,\"count_votes\":2,\"areas\":{\"id\":1,\"country_id\":114,\"name\":\"Abdullah Al-Salem\",\"name_ar\":\"عبدالله السالم \",\"status\":1},\"type\":[{\"id\":1,\"dis_name\":\"Veternary\"},{\"id\":2,\"dis_name\":\"Groomer\"},{\"id\":3,\"dis_name\":\"Walker\"},{\"id\":4,\"dis_name\":\"Trainer\"},{\"id\":5,\"dis_name\":\"Kennel\"}]},{\"id\":31,\"name\":\"Alpesh Provider\",\"name_ar\":\"Alpesh Provider\",\"ptype\":\"Provider\",\"about\":\"test provider\",\"about_ar\":\"test provider\",\"address\":\"Provider address here\",\"area\":\"13\",\"photo\":\"\",\"icon\":\"\",\"email\":\"alpesh@yopmail.com\",\"latitude\":\"\",\"start\":\"07/20/2017\",\"end\":\"07/20/2018\",\"longitude\":\"\",\"contact\":\"965-\",\"website\":\"\",\"facebook\":\"\",\"twitter\":\"\",\"instagram\":\"\",\"status\":1,\"total_cancelled\":0,\"total_booked\":0,\"stars\":0,\"count_votes\":0,\"areas\":{\"id\":13,\"country_id\":114,\"name\":\"Kuwait City\",\"name_ar\":\"مدينة الكويت\",\"status\":1},\"type\":[{\"id\":1,\"dis_name\":\"Veternary\"},{\"id\":3,\"dis_name\":\"Walker\"},{\"id\":4,\"dis_name\":\"Trainer\"}]}]}})"} 
[2017-07-25 15:51:33] local.INFO: 127.0.0.1-frontapi/v1/postServices-Bearer C0Ad6bgDL4sDlY7BwKY5UqzE3eW706OcNCUJFVhDruBID5WJvKbyK6YSZAWD {"request ":{"breed_id":"1","provider_id":"27","size_id":"4","type_id":"3"},"response":"[object] (stdClass: {\"status\":0,\"message\":\"Valid Response\",\"message_ar\":\"Valid Response\",\"data\":{\"Groomer\":[{\"parentid\":2,\"name\":\"Hair Cut\",\"name_er\":\"Hair Cut\",\"service_id\":88,\"breed_id\":1,\"size_id\":4,\"price\":\"12\",\"servicetime\":\"30\",\"technicians\":[{\"id\":48,\"provider_id\":27,\"title\":\"Dr.\",\"name\":\"asas\",\"name_ar\":\"asaa\",\"image\":\"\",\"number\":\"965-1221212212112\",\"email\":\"121212@k.com\",\"address\":\"asa\",\"biodata\":\"asa\",\"status\":1}]},{\"parentid\":2,\"name\":\"Basic Grooming\",\"name_er\":\"Basic Grooming\",\"service_id\":89,\"breed_id\":1,\"size_id\":4,\"price\":\"44\",\"servicetime\":\"25\",\"technicians\":[{\"id\":48,\"provider_id\":27,\"title\":\"Dr.\",\"name\":\"asas\",\"name_ar\":\"asaa\",\"image\":\"\",\"number\":\"965-1221212212112\",\"email\":\"121212@k.com\",\"address\":\"asa\",\"biodata\":\"asa\",\"status\":1}]},{\"parentid\":2,\"name\":\"Bath & Brush\",\"name_er\":\"Bath & Brush\",\"service_id\":90,\"breed_id\":1,\"size_id\":4,\"price\":\"30\",\"servicetime\":\"5\",\"technicians\":[{\"id\":48,\"provider_id\":27,\"title\":\"Dr.\",\"name\":\"asas\",\"name_ar\":\"asaa\",\"image\":\"\",\"number\":\"965-1221212212112\",\"email\":\"121212@k.com\",\"address\":\"asa\",\"biodata\":\"asa\",\"status\":1}]}]}})"} 
[2017-07-25 15:51:36] local.INFO: 127.0.0.1-frontapi/v1/postServices-Bearer C0Ad6bgDL4sDlY7BwKY5UqzE3eW706OcNCUJFVhDruBID5WJvKbyK6YSZAWD {"request ":{"breed_id":"1","provider_id":"27","size_id":"4","type_id":"3"},"response":"[object] (stdClass: {\"status\":0,\"message\":\"Valid Response\",\"message_ar\":\"Valid Response\",\"data\":{\"Groomer\":[{\"parentid\":2,\"name\":\"Hair Cut\",\"name_er\":\"Hair Cut\",\"service_id\":88,\"breed_id\":1,\"size_id\":4,\"price\":\"12\",\"servicetime\":\"30\",\"technicians\":[{\"id\":48,\"provider_id\":27,\"title\":\"Dr.\",\"name\":\"asas\",\"name_ar\":\"asaa\",\"image\":\"\",\"number\":\"965-1221212212112\",\"email\":\"121212@k.com\",\"address\":\"asa\",\"biodata\":\"asa\",\"status\":1}]},{\"parentid\":2,\"name\":\"Basic Grooming\",\"name_er\":\"Basic Grooming\",\"service_id\":89,\"breed_id\":1,\"size_id\":4,\"price\":\"44\",\"servicetime\":\"25\",\"technicians\":[{\"id\":48,\"provider_id\":27,\"title\":\"Dr.\",\"name\":\"asas\",\"name_ar\":\"asaa\",\"image\":\"\",\"number\":\"965-1221212212112\",\"email\":\"121212@k.com\",\"address\":\"asa\",\"biodata\":\"asa\",\"status\":1}]},{\"parentid\":2,\"name\":\"Bath & Brush\",\"name_er\":\"Bath & Brush\",\"service_id\":90,\"breed_id\":1,\"size_id\":4,\"price\":\"30\",\"servicetime\":\"5\",\"technicians\":[{\"id\":48,\"provider_id\":27,\"title\":\"Dr.\",\"name\":\"asas\",\"name_ar\":\"asaa\",\"image\":\"\",\"number\":\"965-1221212212112\",\"email\":\"121212@k.com\",\"address\":\"asa\",\"biodata\":\"asa\",\"status\":1}]}]}})"} 
[2017-07-25 15:52:22] local.INFO: 127.0.0.1-frontapi/v1/postServices-Bearer C0Ad6bgDL4sDlY7BwKY5UqzE3eW706OcNCUJFVhDruBID5WJvKbyK6YSZAWD {"request ":{"breed_id":"1","provider_id":"28","size_id":"4","type_id":"3"},"response":"[object] (stdClass: {\"status\":0,\"message\":\"Valid Response\",\"message_ar\":\"Valid Response\",\"data\":{\"Veternary\":[{\"parentid\":1,\"name\":\"Vaccination\",\"name_er\":\"تطعيم\",\"service_id\":91,\"breed_id\":1,\"size_id\":4,\"price\":\"10\",\"servicetime\":\"5\",\"technicians\":[{\"id\":49,\"provider_id\":28,\"title\":\"Dr.\",\"name\":\"QA test New specialist\",\"name_ar\":\"QA test New specialist Ar\",\"image\":\"http://localhost:8000/uploads/technicians/20170713142556.png\",\"number\":\"965-1236547890\",\"email\":\"specialisttest@test.com\",\"address\":\"this is address testing \",\"biodata\":\"this is biodata test\",\"status\":1}]}]}})"} 
[2017-07-25 15:52:30] local.INFO: 127.0.0.1-frontapi/v1/postServices-Bearer C0Ad6bgDL4sDlY7BwKY5UqzE3eW706OcNCUJFVhDruBID5WJvKbyK6YSZAWD {"request ":{"breed_id":"1","provider_id":"27","size_id":"4","type_id":"3"},"response":"[object] (stdClass: {\"status\":0,\"message\":\"Valid Response\",\"message_ar\":\"Valid Response\",\"data\":{\"Groomer\":[{\"parentid\":2,\"name\":\"Hair Cut\",\"name_er\":\"Hair Cut\",\"service_id\":88,\"breed_id\":1,\"size_id\":4,\"price\":\"12\",\"servicetime\":\"30\",\"technicians\":[{\"id\":48,\"provider_id\":27,\"title\":\"Dr.\",\"name\":\"asas\",\"name_ar\":\"asaa\",\"image\":\"\",\"number\":\"965-1221212212112\",\"email\":\"121212@k.com\",\"address\":\"asa\",\"biodata\":\"asa\",\"status\":1}]},{\"parentid\":2,\"name\":\"Basic Grooming\",\"name_er\":\"Basic Grooming\",\"service_id\":89,\"breed_id\":1,\"size_id\":4,\"price\":\"44\",\"servicetime\":\"25\",\"technicians\":[{\"id\":48,\"provider_id\":27,\"title\":\"Dr.\",\"name\":\"asas\",\"name_ar\":\"asaa\",\"image\":\"\",\"number\":\"965-1221212212112\",\"email\":\"121212@k.com\",\"address\":\"asa\",\"biodata\":\"asa\",\"status\":1}]},{\"parentid\":2,\"name\":\"Bath & Brush\",\"name_er\":\"Bath & Brush\",\"service_id\":90,\"breed_id\":1,\"size_id\":4,\"price\":\"30\",\"servicetime\":\"5\",\"technicians\":[{\"id\":48,\"provider_id\":27,\"title\":\"Dr.\",\"name\":\"asas\",\"name_ar\":\"asaa\",\"image\":\"\",\"number\":\"965-1221212212112\",\"email\":\"121212@k.com\",\"address\":\"asa\",\"biodata\":\"asa\",\"status\":1}]}]}})"} 
[2017-07-25 16:49:27] local.INFO: 127.0.0.1-frontapi/v1/getKennel- {"request ":[],"response":null} 
[2017-07-25 16:50:26] local.INFO: 127.0.0.1-frontapi/v1/getKennel- {"request ":[],"response":"[object] (stdClass: {\"status\":1,\"message\":\"Not Authorized or Token not included\",\"message_ar\":\"Not Authorized or Token not included\"})"} 
[2017-07-25 16:50:49] local.INFO: 127.0.0.1-frontapi/v1/postServices-Bearer C0Ad6bgDL4sDlY7BwKY5UqzE3eW706OcNCUJFVhDruBID5WJvKbyK6YSZAWD {"request ":{"breed_id":"1","provider_id":"27","size_id":"4","type_id":"3"},"response":"[object] (stdClass: {\"status\":0,\"message\":\"Valid Response\",\"message_ar\":\"Valid Response\",\"data\":{\"Groomer\":[{\"parentid\":2,\"name\":\"Hair Cut\",\"name_er\":\"Hair Cut\",\"service_id\":88,\"breed_id\":1,\"size_id\":4,\"price\":\"12\",\"servicetime\":\"30\",\"technicians\":[{\"id\":48,\"provider_id\":27,\"title\":\"Dr.\",\"name\":\"asas\",\"name_ar\":\"asaa\",\"image\":\"\",\"number\":\"965-1221212212112\",\"email\":\"121212@k.com\",\"address\":\"asa\",\"biodata\":\"asa\",\"status\":1}]},{\"parentid\":2,\"name\":\"Basic Grooming\",\"name_er\":\"Basic Grooming\",\"service_id\":89,\"breed_id\":1,\"size_id\":4,\"price\":\"44\",\"servicetime\":\"25\",\"technicians\":[{\"id\":48,\"provider_id\":27,\"title\":\"Dr.\",\"name\":\"asas\",\"name_ar\":\"asaa\",\"image\":\"\",\"number\":\"965-1221212212112\",\"email\":\"121212@k.com\",\"address\":\"asa\",\"biodata\":\"asa\",\"status\":1}]},{\"parentid\":2,\"name\":\"Bath & Brush\",\"name_er\":\"Bath & Brush\",\"service_id\":90,\"breed_id\":1,\"size_id\":4,\"price\":\"30\",\"servicetime\":\"5\",\"technicians\":[{\"id\":48,\"provider_id\":27,\"title\":\"Dr.\",\"name\":\"asas\",\"name_ar\":\"asaa\",\"image\":\"\",\"number\":\"965-1221212212112\",\"email\":\"121212@k.com\",\"address\":\"asa\",\"biodata\":\"asa\",\"status\":1}]}]}})"} 
[2017-07-25 16:50:59] local.INFO: 127.0.0.1-frontapi/v1/getKennel- {"request ":[],"response":"[object] (stdClass: {\"status\":1,\"message\":\"Not Authorized or Token not included\",\"message_ar\":\"Not Authorized or Token not included\"})"} 
[2017-07-25 16:51:14] local.INFO: 127.0.0.1-frontapi/v1/getKennel-Bearer C0Ad6bgDL4sDlY7BwKY5UqzE3eW706OcNCUJFVhDruBID5WJvKbyK6YSZAWD {"request ":[],"response":"[object] (stdClass: {\"status\":0,\"message\":\"Valid Response\",\"message_ar\":\"Valid Response\",\"data\":{\"provider\":[{\"id\":21,\"name\":\"LMH\",\"name_ar\":\"LMH\",\"ptype\":\"Provider\",\"service_type\":0,\"about\":\"dhslkhdal\",\"about_ar\":\"bkbcdksbcks\",\"address\":\"Alrai\",\"area\":\"1\",\"photo\":\"\",\"icon\":\"\",\"email\":\"LMH@wiggleapp.co\",\"latitude\":\"\",\"start\":\"04/11/2017\",\"end\":\"04/11/2018\",\"longitude\":\"\",\"contact\":\"-\",\"website\":\"\",\"facebook\":\"\",\"twitter\":\"\",\"instagram\":\"\",\"status\":1,\"total_cancelled\":0,\"total_booked\":0,\"stars\":0,\"count_votes\":0,\"time\":[{\"Start_time\":\"08:00:00\",\"End_time\":\"20:00:00\"}],\"rate\":[{\"count\":2,\"average_rate\":\"4.0000\"}],\"areas\":{\"id\":1,\"country_id\":114,\"name\":\"Abdullah Al-Salem\",\"name_ar\":\"عبدالله السالم \",\"status\":1}},{\"id\":22,\"name\":\"vin\",\"name_ar\":\"dev\",\"ptype\":\"Provider\",\"service_type\":0,\"about\":\"vin\",\"about_ar\":\"vin\",\"address\":\"kuwait\",\"area\":\"1\",\"photo\":\"http://localhost:8000/uploads/provider/20170413164646.png\",\"icon\":\"http://localhost:8000/uploads/provider/20170413164646.jpg\",\"email\":\"vnits108@gmail.com\",\"latitude\":\"29.4182\",\"start\":\"04/13/2017\",\"end\":\"11/23/2018\",\"longitude\":\"47.6163\",\"contact\":\"965-9879879879987\",\"website\":\"\",\"facebook\":\"\",\"twitter\":\"\",\"instagram\":\"\",\"status\":1,\"total_cancelled\":0,\"total_booked\":0,\"stars\":0,\"count_votes\":0,\"time\":[{\"Start_time\":\"08:00:00\",\"End_time\":\"20:00:00\"}],\"rate\":[{\"count\":2,\"average_rate\":\"2.0000\"}],\"areas\":{\"id\":1,\"country_id\":114,\"name\":\"Abdullah Al-Salem\",\"name_ar\":\"عبدالله السالم \",\"status\":1}},{\"id\":23,\"name\":\"Vin Society\",\"name_ar\":\"vin society\",\"ptype\":\"Society\",\"service_type\":0,\"about\":\"Vin Society\",\"about_ar\":\"Vin Society\",\"address\":\"kuwait\",\"area\":\"1\",\"photo\":\"http://localhost:8000/uploads/provider/20170413165008.png\",\"icon\":\"http://localhost:8000/uploads/provider/20170413165008.jpg\",\"email\":\"vnits109@gmail.com\",\"latitude\":\"29.2398\",\"start\":\"04/13/2017\",\"end\":\"04/13/2018\",\"longitude\":\"47.7070\",\"contact\":\"-5456987787\",\"website\":\"\",\"facebook\":\"\",\"twitter\":\"\",\"instagram\":\"\",\"status\":1,\"total_cancelled\":0,\"total_booked\":0,\"stars\":0,\"count_votes\":0,\"time\":[],\"rate\":[{\"count\":0,\"average_rate\":null}],\"areas\":{\"id\":1,\"country_id\":114,\"name\":\"Abdullah Al-Salem\",\"name_ar\":\"عبدالله السالم \",\"status\":1}},{\"id\":24,\"name\":\"Kennel Provider\",\"name_ar\":\"Kennel Provider\",\"ptype\":\"Provider\",\"service_type\":0,\"about\":\"Kennel Provider\",\"about_ar\":\"Kennel Provider\",\"address\":\"Hawalli\",\"area\":\"31\",\"photo\":\"http://localhost:8000/uploads/provider/20170418095547.jpg\",\"icon\":\"http://localhost:8000/uploads/provider/20170418095547.jpg\",\"email\":\"kennel@si-kw.com\",\"latitude\":\"29.31166\",\"start\":\"04/18/2017\",\"end\":\"04/18/2018\",\"longitude\":\"47.48176\",\"contact\":\"965-12312312\",\"website\":\"\",\"facebook\":\"\",\"twitter\":\"\",\"instagram\":\"\",\"status\":1,\"total_cancelled\":0,\"total_booked\":0,\"stars\":0,\"count_votes\":0,\"time\":[{\"Start_time\":\"08:00:00\",\"End_time\":\"20:00:00\"}],\"rate\":[{\"count\":0,\"average_rate\":null}],\"areas\":{\"id\":31,\"country_id\":114,\"name\":\"Hawally\",\"name_ar\":\"حولي\",\"status\":1}},{\"id\":26,\"name\":\"PET CARE HOUSE\",\"name_ar\":\"PET HOUSE CARE\",\"ptype\":\"Provider\",\"service_type\":0,\"about\":\"\",\"about_ar\":\"\",\"address\":\"ASDFGH\",\"area\":\"1\",\"photo\":\"\",\"icon\":\"\",\"email\":\"kathak@mxicoders.com\",\"latitude\":\"27.6648\",\"start\":\"05/25/2017\",\"end\":\"05/25/2018\",\"longitude\":\"-81.5309\",\"contact\":\"965-\",\"website\":\"\",\"facebook\":\"\",\"twitter\":\"\",\"instagram\":\"\",\"status\":1,\"total_cancelled\":0,\"total_booked\":0,\"stars\":10,\"count_votes\":2,\"time\":[{\"Start_time\":\"08:00:00\",\"End_time\":\"20:00:00\"}],\"rate\":[{\"count\":2,\"average_rate\":\"5.0000\"}],\"areas\":{\"id\":1,\"country_id\":114,\"name\":\"Abdullah Al-Salem\",\"name_ar\":\"عبدالله السالم \",\"status\":1}},{\"id\":27,\"name\":\"Zahur Kennel Service\",\"name_ar\":\"Zahur Kennel Service\",\"ptype\":\"Provider\",\"service_type\":2,\"about\":\"Kennel services \\r\\nGroomer services\\r\\nVeterinary services\\r\\n\",\"about_ar\":\"Kennel services \\r\\nGroomer services\\r\\nVeterinary services\\r\\n\",\"address\":\"hawalli\",\"area\":\"31\",\"photo\":\"http://localhost:8000/uploads/provider/20170530142536.png\",\"icon\":\"http://localhost:8000/uploads/provider/20170530142536.png\",\"email\":\"zahursupport@keenl.com\",\"latitude\":\"29.3081\",\"start\":\"05/30/2017\",\"end\":\"05/30/2018\",\"longitude\":\"48.0668\",\"contact\":\"965-69901557\",\"website\":\"\",\"facebook\":\"\",\"twitter\":\"\",\"instagram\":\"\",\"status\":1,\"total_cancelled\":0,\"total_booked\":0,\"stars\":6,\"count_votes\":2,\"time\":[{\"Start_time\":\"08:00:00\",\"End_time\":\"20:00:00\"}],\"rate\":[{\"count\":9,\"average_rate\":\"3.3333\"}],\"areas\":{\"id\":31,\"country_id\":114,\"name\":\"Hawally\",\"name_ar\":\"حولي\",\"status\":1}},{\"id\":28,\"name\":\"QA Provider\",\"name_ar\":\"QA Provider\",\"ptype\":\"Provider\",\"service_type\":2,\"about\":\"QA Provider offers - vet, groomer, walker, trainer, kennel\",\"about_ar\":\"QA Provider offers - vet, groomer, walker, trainer, kennel\",\"address\":\"Kuwait city\",\"area\":\"1\",\"photo\":\"http://localhost:8000/uploads/provider/20170712101713.png\",\"icon\":\"http://localhost:8000/uploads/provider/20170712101713.png\",\"email\":\"qa@si-kw.com\",\"latitude\":\"27.6648\",\"start\":\"05/25/2017\",\"end\":\"05/30/2018\",\"longitude\":\"-81.5309\",\"contact\":\"965-6969685\",\"website\":\"www.test\",\"facebook\":\"www.facebook.com\",\"twitter\":\"www.twitter.com\",\"instagram\":\"www.instagram.com\",\"status\":1,\"total_cancelled\":0,\"total_booked\":0,\"stars\":10,\"count_votes\":2,\"time\":[{\"Start_time\":\"08:00:00\",\"End_time\":\"20:00:00\"}],\"rate\":[{\"count\":0,\"average_rate\":null}],\"areas\":{\"id\":1,\"country_id\":114,\"name\":\"Abdullah Al-Salem\",\"name_ar\":\"عبدالله السالم \",\"status\":1}},{\"id\":30,\"name\":\"Boarding Services\",\"name_ar\":\"Boarding Services\",\"ptype\":\"Provider\",\"service_type\":0,\"about\":\"xgfcjcvjvkvkbk\",\"about_ar\":\"xnnchcxnxjfvkkh,n\",\"address\":\"Hawalli\",\"area\":\"31\",\"photo\":\"http://localhost:8000/uploads/provider/20170720164258.png\",\"icon\":\"http://localhost:8000/uploads/provider/20170720164258.jpg\",\"email\":\"bs@wiggleapp.co\",\"latitude\":\"29.348546\",\"start\":\"07/15/2017\",\"end\":\"07/15/2018\",\"longitude\":\"48.010939\",\"contact\":\"965-123456\",\"website\":\"\",\"facebook\":\"\",\"twitter\":\"\",\"instagram\":\"\",\"status\":1,\"total_cancelled\":0,\"total_booked\":0,\"stars\":0,\"count_votes\":0,\"time\":[{\"Start_time\":\"08:00:00\",\"End_time\":\"20:00:00\"}],\"rate\":[{\"count\":0,\"average_rate\":null}],\"areas\":{\"id\":31,\"country_id\":114,\"name\":\"Hawally\",\"name_ar\":\"حولي\",\"status\":1}}]}})"} 
[2017-07-25 16:55:08] local.INFO: 127.0.0.1-frontapi/v1/getKennel-Bearer C0Ad6bgDL4sDlY7BwKY5UqzE3eW706OcNCUJFVhDruBID5WJvKbyK6YSZAWD {"request ":[],"response":"[object] (stdClass: {\"status\":0,\"message\":\"Valid Response\",\"message_ar\":\"Valid Response\",\"data\":{\"provider\":[{\"id\":21,\"name\":\"LMH\",\"name_ar\":\"LMH\",\"ptype\":\"Provider\",\"service_type\":0,\"about\":\"dhslkhdal\",\"about_ar\":\"bkbcdksbcks\",\"address\":\"Alrai\",\"area\":\"1\",\"photo\":\"\",\"icon\":\"\",\"email\":\"LMH@wiggleapp.co\",\"latitude\":\"\",\"start\":\"04/11/2017\",\"end\":\"04/11/2018\",\"longitude\":\"\",\"contact\":\"-\",\"website\":\"\",\"facebook\":\"\",\"twitter\":\"\",\"instagram\":\"\",\"status\":1,\"total_cancelled\":0,\"total_booked\":0,\"stars\":0,\"count_votes\":0,\"time\":[{\"Start_time\":\"08:00:00\",\"End_time\":\"20:00:00\"}],\"breed_id\":1,\"rate\":[{\"count\":2,\"average_rate\":\"4.0000\"}],\"areas\":{\"id\":1,\"country_id\":114,\"name\":\"Abdullah Al-Salem\",\"name_ar\":\"عبدالله السالم \",\"status\":1}},{\"id\":22,\"name\":\"vin\",\"name_ar\":\"dev\",\"ptype\":\"Provider\",\"service_type\":0,\"about\":\"vin\",\"about_ar\":\"vin\",\"address\":\"kuwait\",\"area\":\"1\",\"photo\":\"http://localhost:8000/uploads/provider/20170413164646.png\",\"icon\":\"http://localhost:8000/uploads/provider/20170413164646.jpg\",\"email\":\"vnits108@gmail.com\",\"latitude\":\"29.4182\",\"start\":\"04/13/2017\",\"end\":\"11/23/2018\",\"longitude\":\"47.6163\",\"contact\":\"965-9879879879987\",\"website\":\"\",\"facebook\":\"\",\"twitter\":\"\",\"instagram\":\"\",\"status\":1,\"total_cancelled\":0,\"total_booked\":0,\"stars\":0,\"count_votes\":0,\"time\":[{\"Start_time\":\"08:00:00\",\"End_time\":\"20:00:00\"}],\"breed_id\":1,\"rate\":[{\"count\":2,\"average_rate\":\"2.0000\"}],\"areas\":{\"id\":1,\"country_id\":114,\"name\":\"Abdullah Al-Salem\",\"name_ar\":\"عبدالله السالم \",\"status\":1}},{\"id\":23,\"name\":\"Vin Society\",\"name_ar\":\"vin society\",\"ptype\":\"Society\",\"service_type\":0,\"about\":\"Vin Society\",\"about_ar\":\"Vin Society\",\"address\":\"kuwait\",\"area\":\"1\",\"photo\":\"http://localhost:8000/uploads/provider/20170413165008.png\",\"icon\":\"http://localhost:8000/uploads/provider/20170413165008.jpg\",\"email\":\"vnits109@gmail.com\",\"latitude\":\"29.2398\",\"start\":\"04/13/2017\",\"end\":\"04/13/2018\",\"longitude\":\"47.7070\",\"contact\":\"-5456987787\",\"website\":\"\",\"facebook\":\"\",\"twitter\":\"\",\"instagram\":\"\",\"status\":1,\"total_cancelled\":0,\"total_booked\":0,\"stars\":0,\"count_votes\":0,\"time\":[],\"breed_id\":1,\"rate\":[{\"count\":0,\"average_rate\":null}],\"areas\":{\"id\":1,\"country_id\":114,\"name\":\"Abdullah Al-Salem\",\"name_ar\":\"عبدالله السالم \",\"status\":1}},{\"id\":24,\"name\":\"Kennel Provider\",\"name_ar\":\"Kennel Provider\",\"ptype\":\"Provider\",\"service_type\":0,\"about\":\"Kennel Provider\",\"about_ar\":\"Kennel Provider\",\"address\":\"Hawalli\",\"area\":\"31\",\"photo\":\"http://localhost:8000/uploads/provider/20170418095547.jpg\",\"icon\":\"http://localhost:8000/uploads/provider/20170418095547.jpg\",\"email\":\"kennel@si-kw.com\",\"latitude\":\"29.31166\",\"start\":\"04/18/2017\",\"end\":\"04/18/2018\",\"longitude\":\"47.48176\",\"contact\":\"965-12312312\",\"website\":\"\",\"facebook\":\"\",\"twitter\":\"\",\"instagram\":\"\",\"status\":1,\"total_cancelled\":0,\"total_booked\":0,\"stars\":0,\"count_votes\":0,\"time\":[{\"Start_time\":\"08:00:00\",\"End_time\":\"20:00:00\"}],\"breed_id\":1,\"rate\":[{\"count\":0,\"average_rate\":null}],\"areas\":{\"id\":31,\"country_id\":114,\"name\":\"Hawally\",\"name_ar\":\"حولي\",\"status\":1}},{\"id\":26,\"name\":\"PET CARE HOUSE\",\"name_ar\":\"PET HOUSE CARE\",\"ptype\":\"Provider\",\"service_type\":0,\"about\":\"\",\"about_ar\":\"\",\"address\":\"ASDFGH\",\"area\":\"1\",\"photo\":\"\",\"icon\":\"\",\"email\":\"kathak@mxicoders.com\",\"latitude\":\"27.6648\",\"start\":\"05/25/2017\",\"end\":\"05/25/2018\",\"longitude\":\"-81.5309\",\"contact\":\"965-\",\"website\":\"\",\"facebook\":\"\",\"twitter\":\"\",\"instagram\":\"\",\"status\":1,\"total_cancelled\":0,\"total_booked\":0,\"stars\":10,\"count_votes\":2,\"time\":[{\"Start_time\":\"08:00:00\",\"End_time\":\"20:00:00\"}],\"breed_id\":1,\"rate\":[{\"count\":2,\"average_rate\":\"5.0000\"}],\"areas\":{\"id\":1,\"country_id\":114,\"name\":\"Abdullah Al-Salem\",\"name_ar\":\"عبدالله السالم \",\"status\":1}},{\"id\":27,\"name\":\"Zahur Kennel Service\",\"name_ar\":\"Zahur Kennel Service\",\"ptype\":\"Provider\",\"service_type\":2,\"about\":\"Kennel services \\r\\nGroomer services\\r\\nVeterinary services\\r\\n\",\"about_ar\":\"Kennel services \\r\\nGroomer services\\r\\nVeterinary services\\r\\n\",\"address\":\"hawalli\",\"area\":\"31\",\"photo\":\"http://localhost:8000/uploads/provider/20170530142536.png\",\"icon\":\"http://localhost:8000/uploads/provider/20170530142536.png\",\"email\":\"zahursupport@keenl.com\",\"latitude\":\"29.3081\",\"start\":\"05/30/2017\",\"end\":\"05/30/2018\",\"longitude\":\"48.0668\",\"contact\":\"965-69901557\",\"website\":\"\",\"facebook\":\"\",\"twitter\":\"\",\"instagram\":\"\",\"status\":1,\"total_cancelled\":0,\"total_booked\":0,\"stars\":6,\"count_votes\":2,\"time\":[{\"Start_time\":\"08:00:00\",\"End_time\":\"20:00:00\"}],\"breed_id\":1,\"rate\":[{\"count\":9,\"average_rate\":\"3.3333\"}],\"areas\":{\"id\":31,\"country_id\":114,\"name\":\"Hawally\",\"name_ar\":\"حولي\",\"status\":1}},{\"id\":28,\"name\":\"QA Provider\",\"name_ar\":\"QA Provider\",\"ptype\":\"Provider\",\"service_type\":2,\"about\":\"QA Provider offers - vet, groomer, walker, trainer, kennel\",\"about_ar\":\"QA Provider offers - vet, groomer, walker, trainer, kennel\",\"address\":\"Kuwait city\",\"area\":\"1\",\"photo\":\"http://localhost:8000/uploads/provider/20170712101713.png\",\"icon\":\"http://localhost:8000/uploads/provider/20170712101713.png\",\"email\":\"qa@si-kw.com\",\"latitude\":\"27.6648\",\"start\":\"05/25/2017\",\"end\":\"05/30/2018\",\"longitude\":\"-81.5309\",\"contact\":\"965-6969685\",\"website\":\"www.test\",\"facebook\":\"www.facebook.com\",\"twitter\":\"www.twitter.com\",\"instagram\":\"www.instagram.com\",\"status\":1,\"total_cancelled\":0,\"total_booked\":0,\"stars\":10,\"count_votes\":2,\"time\":[{\"Start_time\":\"08:00:00\",\"End_time\":\"20:00:00\"}],\"breed_id\":1,\"rate\":[{\"count\":0,\"average_rate\":null}],\"areas\":{\"id\":1,\"country_id\":114,\"name\":\"Abdullah Al-Salem\",\"name_ar\":\"عبدالله السالم \",\"status\":1}},{\"id\":30,\"name\":\"Boarding Services\",\"name_ar\":\"Boarding Services\",\"ptype\":\"Provider\",\"service_type\":0,\"about\":\"xgfcjcvjvkvkbk\",\"about_ar\":\"xnnchcxnxjfvkkh,n\",\"address\":\"Hawalli\",\"area\":\"31\",\"photo\":\"http://localhost:8000/uploads/provider/20170720164258.png\",\"icon\":\"http://localhost:8000/uploads/provider/20170720164258.jpg\",\"email\":\"bs@wiggleapp.co\",\"latitude\":\"29.348546\",\"start\":\"07/15/2017\",\"end\":\"07/15/2018\",\"longitude\":\"48.010939\",\"contact\":\"965-123456\",\"website\":\"\",\"facebook\":\"\",\"twitter\":\"\",\"instagram\":\"\",\"status\":1,\"total_cancelled\":0,\"total_booked\":0,\"stars\":0,\"count_votes\":0,\"time\":[{\"Start_time\":\"08:00:00\",\"End_time\":\"20:00:00\"}],\"breed_id\":1,\"rate\":[{\"count\":0,\"average_rate\":null}],\"areas\":{\"id\":31,\"country_id\":114,\"name\":\"Hawally\",\"name_ar\":\"حولي\",\"status\":1}}]}})"} 
[2017-07-25 16:56:06] local.INFO: 127.0.0.1-frontapi/v1/getKennel-Bearer C0Ad6bgDL4sDlY7BwKY5UqzE3eW706OcNCUJFVhDruBID5WJvKbyK6YSZAWD {"request ":[],"response":"[object] (stdClass: {\"status\":0,\"message\":\"Valid Response\",\"message_ar\":\"Valid Response\",\"data\":{\"provider\":[{\"id\":21,\"name\":\"LMH\",\"name_ar\":\"LMH\",\"ptype\":\"Provider\",\"service_type\":0,\"about\":\"dhslkhdal\",\"about_ar\":\"bkbcdksbcks\",\"address\":\"Alrai\",\"area\":\"1\",\"photo\":\"\",\"icon\":\"\",\"email\":\"LMH@wiggleapp.co\",\"latitude\":\"\",\"start\":\"04/11/2017\",\"end\":\"04/11/2018\",\"longitude\":\"\",\"contact\":\"-\",\"website\":\"\",\"facebook\":\"\",\"twitter\":\"\",\"instagram\":\"\",\"status\":1,\"total_cancelled\":0,\"total_booked\":0,\"stars\":0,\"count_votes\":0,\"time\":[{\"Start_time\":\"08:00:00\",\"End_time\":\"20:00:00\"}],\"breed_id\":[1,2],\"rate\":[{\"count\":2,\"average_rate\":\"4.0000\"}],\"areas\":{\"id\":1,\"country_id\":114,\"name\":\"Abdullah Al-Salem\",\"name_ar\":\"عبدالله السالم \",\"status\":1}},{\"id\":22,\"name\":\"vin\",\"name_ar\":\"dev\",\"ptype\":\"Provider\",\"service_type\":0,\"about\":\"vin\",\"about_ar\":\"vin\",\"address\":\"kuwait\",\"area\":\"1\",\"photo\":\"http://localhost:8000/uploads/provider/20170413164646.png\",\"icon\":\"http://localhost:8000/uploads/provider/20170413164646.jpg\",\"email\":\"vnits108@gmail.com\",\"latitude\":\"29.4182\",\"start\":\"04/13/2017\",\"end\":\"11/23/2018\",\"longitude\":\"47.6163\",\"contact\":\"965-9879879879987\",\"website\":\"\",\"facebook\":\"\",\"twitter\":\"\",\"instagram\":\"\",\"status\":1,\"total_cancelled\":0,\"total_booked\":0,\"stars\":0,\"count_votes\":0,\"time\":[{\"Start_time\":\"08:00:00\",\"End_time\":\"20:00:00\"}],\"breed_id\":[1,2],\"rate\":[{\"count\":2,\"average_rate\":\"2.0000\"}],\"areas\":{\"id\":1,\"country_id\":114,\"name\":\"Abdullah Al-Salem\",\"name_ar\":\"عبدالله السالم \",\"status\":1}},{\"id\":23,\"name\":\"Vin Society\",\"name_ar\":\"vin society\",\"ptype\":\"Society\",\"service_type\":0,\"about\":\"Vin Society\",\"about_ar\":\"Vin Society\",\"address\":\"kuwait\",\"area\":\"1\",\"photo\":\"http://localhost:8000/uploads/provider/20170413165008.png\",\"icon\":\"http://localhost:8000/uploads/provider/20170413165008.jpg\",\"email\":\"vnits109@gmail.com\",\"latitude\":\"29.2398\",\"start\":\"04/13/2017\",\"end\":\"04/13/2018\",\"longitude\":\"47.7070\",\"contact\":\"-5456987787\",\"website\":\"\",\"facebook\":\"\",\"twitter\":\"\",\"instagram\":\"\",\"status\":1,\"total_cancelled\":0,\"total_booked\":0,\"stars\":0,\"count_votes\":0,\"time\":[],\"breed_id\":[1,2],\"rate\":[{\"count\":0,\"average_rate\":null}],\"areas\":{\"id\":1,\"country_id\":114,\"name\":\"Abdullah Al-Salem\",\"name_ar\":\"عبدالله السالم \",\"status\":1}},{\"id\":24,\"name\":\"Kennel Provider\",\"name_ar\":\"Kennel Provider\",\"ptype\":\"Provider\",\"service_type\":0,\"about\":\"Kennel Provider\",\"about_ar\":\"Kennel Provider\",\"address\":\"Hawalli\",\"area\":\"31\",\"photo\":\"http://localhost:8000/uploads/provider/20170418095547.jpg\",\"icon\":\"http://localhost:8000/uploads/provider/20170418095547.jpg\",\"email\":\"kennel@si-kw.com\",\"latitude\":\"29.31166\",\"start\":\"04/18/2017\",\"end\":\"04/18/2018\",\"longitude\":\"47.48176\",\"contact\":\"965-12312312\",\"website\":\"\",\"facebook\":\"\",\"twitter\":\"\",\"instagram\":\"\",\"status\":1,\"total_cancelled\":0,\"total_booked\":0,\"stars\":0,\"count_votes\":0,\"time\":[{\"Start_time\":\"08:00:00\",\"End_time\":\"20:00:00\"}],\"breed_id\":[1,2],\"rate\":[{\"count\":0,\"average_rate\":null}],\"areas\":{\"id\":31,\"country_id\":114,\"name\":\"Hawally\",\"name_ar\":\"حولي\",\"status\":1}},{\"id\":26,\"name\":\"PET CARE HOUSE\",\"name_ar\":\"PET HOUSE CARE\",\"ptype\":\"Provider\",\"service_type\":0,\"about\":\"\",\"about_ar\":\"\",\"address\":\"ASDFGH\",\"area\":\"1\",\"photo\":\"\",\"icon\":\"\",\"email\":\"kathak@mxicoders.com\",\"latitude\":\"27.6648\",\"start\":\"05/25/2017\",\"end\":\"05/25/2018\",\"longitude\":\"-81.5309\",\"contact\":\"965-\",\"website\":\"\",\"facebook\":\"\",\"twitter\":\"\",\"instagram\":\"\",\"status\":1,\"total_cancelled\":0,\"total_booked\":0,\"stars\":10,\"count_votes\":2,\"time\":[{\"Start_time\":\"08:00:00\",\"End_time\":\"20:00:00\"}],\"breed_id\":[1,2],\"rate\":[{\"count\":2,\"average_rate\":\"5.0000\"}],\"areas\":{\"id\":1,\"country_id\":114,\"name\":\"Abdullah Al-Salem\",\"name_ar\":\"عبدالله السالم \",\"status\":1}},{\"id\":27,\"name\":\"Zahur Kennel Service\",\"name_ar\":\"Zahur Kennel Service\",\"ptype\":\"Provider\",\"service_type\":2,\"about\":\"Kennel services \\r\\nGroomer services\\r\\nVeterinary services\\r\\n\",\"about_ar\":\"Kennel services \\r\\nGroomer services\\r\\nVeterinary services\\r\\n\",\"address\":\"hawalli\",\"area\":\"31\",\"photo\":\"http://localhost:8000/uploads/provider/20170530142536.png\",\"icon\":\"http://localhost:8000/uploads/provider/20170530142536.png\",\"email\":\"zahursupport@keenl.com\",\"latitude\":\"29.3081\",\"start\":\"05/30/2017\",\"end\":\"05/30/2018\",\"longitude\":\"48.0668\",\"contact\":\"965-69901557\",\"website\":\"\",\"facebook\":\"\",\"twitter\":\"\",\"instagram\":\"\",\"status\":1,\"total_cancelled\":0,\"total_booked\":0,\"stars\":6,\"count_votes\":2,\"time\":[{\"Start_time\":\"08:00:00\",\"End_time\":\"20:00:00\"}],\"breed_id\":[1,2],\"rate\":[{\"count\":9,\"average_rate\":\"3.3333\"}],\"areas\":{\"id\":31,\"country_id\":114,\"name\":\"Hawally\",\"name_ar\":\"حولي\",\"status\":1}},{\"id\":28,\"name\":\"QA Provider\",\"name_ar\":\"QA Provider\",\"ptype\":\"Provider\",\"service_type\":2,\"about\":\"QA Provider offers - vet, groomer, walker, trainer, kennel\",\"about_ar\":\"QA Provider offers - vet, groomer, walker, trainer, kennel\",\"address\":\"Kuwait city\",\"area\":\"1\",\"photo\":\"http://localhost:8000/uploads/provider/20170712101713.png\",\"icon\":\"http://localhost:8000/uploads/provider/20170712101713.png\",\"email\":\"qa@si-kw.com\",\"latitude\":\"27.6648\",\"start\":\"05/25/2017\",\"end\":\"05/30/2018\",\"longitude\":\"-81.5309\",\"contact\":\"965-6969685\",\"website\":\"www.test\",\"facebook\":\"www.facebook.com\",\"twitter\":\"www.twitter.com\",\"instagram\":\"www.instagram.com\",\"status\":1,\"total_cancelled\":0,\"total_booked\":0,\"stars\":10,\"count_votes\":2,\"time\":[{\"Start_time\":\"08:00:00\",\"End_time\":\"20:00:00\"}],\"breed_id\":[1,2],\"rate\":[{\"count\":0,\"average_rate\":null}],\"areas\":{\"id\":1,\"country_id\":114,\"name\":\"Abdullah Al-Salem\",\"name_ar\":\"عبدالله السالم \",\"status\":1}},{\"id\":30,\"name\":\"Boarding Services\",\"name_ar\":\"Boarding Services\",\"ptype\":\"Provider\",\"service_type\":0,\"about\":\"xgfcjcvjvkvkbk\",\"about_ar\":\"xnnchcxnxjfvkkh,n\",\"address\":\"Hawalli\",\"area\":\"31\",\"photo\":\"http://localhost:8000/uploads/provider/20170720164258.png\",\"icon\":\"http://localhost:8000/uploads/provider/20170720164258.jpg\",\"email\":\"bs@wiggleapp.co\",\"latitude\":\"29.348546\",\"start\":\"07/15/2017\",\"end\":\"07/15/2018\",\"longitude\":\"48.010939\",\"contact\":\"965-123456\",\"website\":\"\",\"facebook\":\"\",\"twitter\":\"\",\"instagram\":\"\",\"status\":1,\"total_cancelled\":0,\"total_booked\":0,\"stars\":0,\"count_votes\":0,\"time\":[{\"Start_time\":\"08:00:00\",\"End_time\":\"20:00:00\"}],\"breed_id\":[1,2],\"rate\":[{\"count\":0,\"average_rate\":null}],\"areas\":{\"id\":31,\"country_id\":114,\"name\":\"Hawally\",\"name_ar\":\"حولي\",\"status\":1}}]}})"} 
[2017-07-25 17:00:47] local.INFO: 127.0.0.1-frontapi/v1/getKennel-Bearer C0Ad6bgDL4sDlY7BwKY5UqzE3eW706OcNCUJFVhDruBID5WJvKbyK6YSZAWD {"request ":[],"response":"[object] (stdClass: {\"status\":0,\"message\":\"Valid Response\",\"message_ar\":\"Valid Response\",\"data\":{\"provider\":[{\"id\":21,\"name\":\"LMH\",\"name_ar\":\"LMH\",\"ptype\":\"Provider\",\"service_type\":0,\"about\":\"dhslkhdal\",\"about_ar\":\"bkbcdksbcks\",\"address\":\"Alrai\",\"area\":\"1\",\"photo\":\"\",\"icon\":\"\",\"email\":\"LMH@wiggleapp.co\",\"latitude\":\"\",\"start\":\"04/11/2017\",\"end\":\"04/11/2018\",\"longitude\":\"\",\"contact\":\"-\",\"website\":\"\",\"facebook\":\"\",\"twitter\":\"\",\"instagram\":\"\",\"status\":1,\"total_cancelled\":0,\"total_booked\":0,\"stars\":0,\"count_votes\":0,\"time\":[{\"Start_time\":\"08:00:00\",\"End_time\":\"20:00:00\"}],\"breed_id\":[1,2],\"rate\":[{\"count\":2,\"average_rate\":\"4.0000\"}],\"areas\":{\"id\":1,\"country_id\":114,\"name\":\"Abdullah Al-Salem\",\"name_ar\":\"عبدالله السالم \",\"status\":1}},{\"id\":22,\"name\":\"vin\",\"name_ar\":\"dev\",\"ptype\":\"Provider\",\"service_type\":0,\"about\":\"vin\",\"about_ar\":\"vin\",\"address\":\"kuwait\",\"area\":\"1\",\"photo\":\"http://localhost:8000/uploads/provider/20170413164646.png\",\"icon\":\"http://localhost:8000/uploads/provider/20170413164646.jpg\",\"email\":\"vnits108@gmail.com\",\"latitude\":\"29.4182\",\"start\":\"04/13/2017\",\"end\":\"11/23/2018\",\"longitude\":\"47.6163\",\"contact\":\"965-9879879879987\",\"website\":\"\",\"facebook\":\"\",\"twitter\":\"\",\"instagram\":\"\",\"status\":1,\"total_cancelled\":0,\"total_booked\":0,\"stars\":0,\"count_votes\":0,\"time\":[{\"Start_time\":\"08:00:00\",\"End_time\":\"20:00:00\"}],\"breed_id\":[1,2],\"rate\":[{\"count\":2,\"average_rate\":\"2.0000\"}],\"areas\":{\"id\":1,\"country_id\":114,\"name\":\"Abdullah Al-Salem\",\"name_ar\":\"عبدالله السالم \",\"status\":1}},{\"id\":23,\"name\":\"Vin Society\",\"name_ar\":\"vin society\",\"ptype\":\"Society\",\"service_type\":0,\"about\":\"Vin Society\",\"about_ar\":\"Vin Society\",\"address\":\"kuwait\",\"area\":\"1\",\"photo\":\"http://localhost:8000/uploads/provider/20170413165008.png\",\"icon\":\"http://localhost:8000/uploads/provider/20170413165008.jpg\",\"email\":\"vnits109@gmail.com\",\"latitude\":\"29.2398\",\"start\":\"04/13/2017\",\"end\":\"04/13/2018\",\"longitude\":\"47.7070\",\"contact\":\"-5456987787\",\"website\":\"\",\"facebook\":\"\",\"twitter\":\"\",\"instagram\":\"\",\"status\":1,\"total_cancelled\":0,\"total_booked\":0,\"stars\":0,\"count_votes\":0,\"time\":[],\"breed_id\":[1,2],\"rate\":[{\"count\":0,\"average_rate\":null}],\"areas\":{\"id\":1,\"country_id\":114,\"name\":\"Abdullah Al-Salem\",\"name_ar\":\"عبدالله السالم \",\"status\":1}},{\"id\":24,\"name\":\"Kennel Provider\",\"name_ar\":\"Kennel Provider\",\"ptype\":\"Provider\",\"service_type\":0,\"about\":\"Kennel Provider\",\"about_ar\":\"Kennel Provider\",\"address\":\"Hawalli\",\"area\":\"31\",\"photo\":\"http://localhost:8000/uploads/provider/20170418095547.jpg\",\"icon\":\"http://localhost:8000/uploads/provider/20170418095547.jpg\",\"email\":\"kennel@si-kw.com\",\"latitude\":\"29.31166\",\"start\":\"04/18/2017\",\"end\":\"04/18/2018\",\"longitude\":\"47.48176\",\"contact\":\"965-12312312\",\"website\":\"\",\"facebook\":\"\",\"twitter\":\"\",\"instagram\":\"\",\"status\":1,\"total_cancelled\":0,\"total_booked\":0,\"stars\":0,\"count_votes\":0,\"time\":[{\"Start_time\":\"08:00:00\",\"End_time\":\"20:00:00\"}],\"breed_id\":[1,2],\"rate\":[{\"count\":0,\"average_rate\":null}],\"areas\":{\"id\":31,\"country_id\":114,\"name\":\"Hawally\",\"name_ar\":\"حولي\",\"status\":1}},{\"id\":26,\"name\":\"PET CARE HOUSE\",\"name_ar\":\"PET HOUSE CARE\",\"ptype\":\"Provider\",\"service_type\":0,\"about\":\"\",\"about_ar\":\"\",\"address\":\"ASDFGH\",\"area\":\"1\",\"photo\":\"\",\"icon\":\"\",\"email\":\"kathak@mxicoders.com\",\"latitude\":\"27.6648\",\"start\":\"05/25/2017\",\"end\":\"05/25/2018\",\"longitude\":\"-81.5309\",\"contact\":\"965-\",\"website\":\"\",\"facebook\":\"\",\"twitter\":\"\",\"instagram\":\"\",\"status\":1,\"total_cancelled\":0,\"total_booked\":0,\"stars\":10,\"count_votes\":2,\"time\":[{\"Start_time\":\"08:00:00\",\"End_time\":\"20:00:00\"}],\"breed_id\":[1,2],\"rate\":[{\"count\":2,\"average_rate\":\"5.0000\"}],\"areas\":{\"id\":1,\"country_id\":114,\"name\":\"Abdullah Al-Salem\",\"name_ar\":\"عبدالله السالم \",\"status\":1}},{\"id\":27,\"name\":\"Zahur Kennel Service\",\"name_ar\":\"Zahur Kennel Service\",\"ptype\":\"Provider\",\"service_type\":2,\"about\":\"Kennel services \\r\\nGroomer services\\r\\nVeterinary services\\r\\n\",\"about_ar\":\"Kennel services \\r\\nGroomer services\\r\\nVeterinary services\\r\\n\",\"address\":\"hawalli\",\"area\":\"31\",\"photo\":\"http://localhost:8000/uploads/provider/20170530142536.png\",\"icon\":\"http://localhost:8000/uploads/provider/20170530142536.png\",\"email\":\"zahursupport@keenl.com\",\"latitude\":\"29.3081\",\"start\":\"05/30/2017\",\"end\":\"05/30/2018\",\"longitude\":\"48.0668\",\"contact\":\"965-69901557\",\"website\":\"\",\"facebook\":\"\",\"twitter\":\"\",\"instagram\":\"\",\"status\":1,\"total_cancelled\":0,\"total_booked\":0,\"stars\":6,\"count_votes\":2,\"time\":[{\"Start_time\":\"08:00:00\",\"End_time\":\"20:00:00\"}],\"breed_id\":[2],\"rate\":[{\"count\":9,\"average_rate\":\"3.3333\"}],\"areas\":{\"id\":31,\"country_id\":114,\"name\":\"Hawally\",\"name_ar\":\"حولي\",\"status\":1}},{\"id\":28,\"name\":\"QA Provider\",\"name_ar\":\"QA Provider\",\"ptype\":\"Provider\",\"service_type\":2,\"about\":\"QA Provider offers - vet, groomer, walker, trainer, kennel\",\"about_ar\":\"QA Provider offers - vet, groomer, walker, trainer, kennel\",\"address\":\"Kuwait city\",\"area\":\"1\",\"photo\":\"http://localhost:8000/uploads/provider/20170712101713.png\",\"icon\":\"http://localhost:8000/uploads/provider/20170712101713.png\",\"email\":\"qa@si-kw.com\",\"latitude\":\"27.6648\",\"start\":\"05/25/2017\",\"end\":\"05/30/2018\",\"longitude\":\"-81.5309\",\"contact\":\"965-6969685\",\"website\":\"www.test\",\"facebook\":\"www.facebook.com\",\"twitter\":\"www.twitter.com\",\"instagram\":\"www.instagram.com\",\"status\":1,\"total_cancelled\":0,\"total_booked\":0,\"stars\":10,\"count_votes\":2,\"time\":[{\"Start_time\":\"08:00:00\",\"End_time\":\"20:00:00\"}],\"breed_id\":[2],\"rate\":[{\"count\":0,\"average_rate\":null}],\"areas\":{\"id\":1,\"country_id\":114,\"name\":\"Abdullah Al-Salem\",\"name_ar\":\"عبدالله السالم \",\"status\":1}},{\"id\":30,\"name\":\"Boarding Services\",\"name_ar\":\"Boarding Services\",\"ptype\":\"Provider\",\"service_type\":0,\"about\":\"xgfcjcvjvkvkbk\",\"about_ar\":\"xnnchcxnxjfvkkh,n\",\"address\":\"Hawalli\",\"area\":\"31\",\"photo\":\"http://localhost:8000/uploads/provider/20170720164258.png\",\"icon\":\"http://localhost:8000/uploads/provider/20170720164258.jpg\",\"email\":\"bs@wiggleapp.co\",\"latitude\":\"29.348546\",\"start\":\"07/15/2017\",\"end\":\"07/15/2018\",\"longitude\":\"48.010939\",\"contact\":\"965-123456\",\"website\":\"\",\"facebook\":\"\",\"twitter\":\"\",\"instagram\":\"\",\"status\":1,\"total_cancelled\":0,\"total_booked\":0,\"stars\":0,\"count_votes\":0,\"time\":[{\"Start_time\":\"08:00:00\",\"End_time\":\"20:00:00\"}],\"breed_id\":[1,2],\"rate\":[{\"count\":0,\"average_rate\":null}],\"areas\":{\"id\":31,\"country_id\":114,\"name\":\"Hawally\",\"name_ar\":\"حولي\",\"status\":1}}]}})"} 
[2017-07-25 17:04:50] local.INFO: 127.0.0.1-frontapi/v1/getKennel-Bearer C0Ad6bgDL4sDlY7BwKY5UqzE3eW706OcNCUJFVhDruBID5WJvKbyK6YSZAWD {"request ":[],"response":"[object] (stdClass: {\"status\":0,\"message\":\"Valid Response\",\"message_ar\":\"Valid Response\",\"data\":{\"provider\":[{\"id\":21,\"name\":\"LMH\",\"name_ar\":\"LMH\",\"ptype\":\"Provider\",\"service_type\":0,\"about\":\"dhslkhdal\",\"about_ar\":\"bkbcdksbcks\",\"address\":\"Alrai\",\"area\":\"1\",\"photo\":\"\",\"icon\":\"\",\"email\":\"LMH@wiggleapp.co\",\"latitude\":\"\",\"start\":\"04/11/2017\",\"end\":\"04/11/2018\",\"longitude\":\"\",\"contact\":\"-\",\"website\":\"\",\"facebook\":\"\",\"twitter\":\"\",\"instagram\":\"\",\"status\":1,\"total_cancelled\":0,\"total_booked\":0,\"stars\":0,\"count_votes\":0,\"time\":[{\"Start_time\":\"08:00:00\",\"End_time\":\"20:00:00\"}],\"breed_id\":[1,2],\"rate\":[{\"count\":2,\"average_rate\":\"4.0000\"}],\"areas\":{\"id\":1,\"country_id\":114,\"name\":\"Abdullah Al-Salem\",\"name_ar\":\"عبدالله السالم \",\"status\":1}},{\"id\":22,\"name\":\"vin\",\"name_ar\":\"dev\",\"ptype\":\"Provider\",\"service_type\":0,\"about\":\"vin\",\"about_ar\":\"vin\",\"address\":\"kuwait\",\"area\":\"1\",\"photo\":\"http://localhost:8000/uploads/provider/20170413164646.png\",\"icon\":\"http://localhost:8000/uploads/provider/20170413164646.jpg\",\"email\":\"vnits108@gmail.com\",\"latitude\":\"29.4182\",\"start\":\"04/13/2017\",\"end\":\"11/23/2018\",\"longitude\":\"47.6163\",\"contact\":\"965-9879879879987\",\"website\":\"\",\"facebook\":\"\",\"twitter\":\"\",\"instagram\":\"\",\"status\":1,\"total_cancelled\":0,\"total_booked\":0,\"stars\":0,\"count_votes\":0,\"time\":[{\"Start_time\":\"08:00:00\",\"End_time\":\"20:00:00\"}],\"breed_id\":[1,2],\"rate\":[{\"count\":2,\"average_rate\":\"2.0000\"}],\"areas\":{\"id\":1,\"country_id\":114,\"name\":\"Abdullah Al-Salem\",\"name_ar\":\"عبدالله السالم \",\"status\":1}},{\"id\":23,\"name\":\"Vin Society\",\"name_ar\":\"vin society\",\"ptype\":\"Society\",\"service_type\":0,\"about\":\"Vin Society\",\"about_ar\":\"Vin Society\",\"address\":\"kuwait\",\"area\":\"1\",\"photo\":\"http://localhost:8000/uploads/provider/20170413165008.png\",\"icon\":\"http://localhost:8000/uploads/provider/20170413165008.jpg\",\"email\":\"vnits109@gmail.com\",\"latitude\":\"29.2398\",\"start\":\"04/13/2017\",\"end\":\"04/13/2018\",\"longitude\":\"47.7070\",\"contact\":\"-5456987787\",\"website\":\"\",\"facebook\":\"\",\"twitter\":\"\",\"instagram\":\"\",\"status\":1,\"total_cancelled\":0,\"total_booked\":0,\"stars\":0,\"count_votes\":0,\"time\":[],\"breed_id\":[1,2],\"rate\":[{\"count\":0,\"average_rate\":null}],\"areas\":{\"id\":1,\"country_id\":114,\"name\":\"Abdullah Al-Salem\",\"name_ar\":\"عبدالله السالم \",\"status\":1}},{\"id\":24,\"name\":\"Kennel Provider\",\"name_ar\":\"Kennel Provider\",\"ptype\":\"Provider\",\"service_type\":0,\"about\":\"Kennel Provider\",\"about_ar\":\"Kennel Provider\",\"address\":\"Hawalli\",\"area\":\"31\",\"photo\":\"http://localhost:8000/uploads/provider/20170418095547.jpg\",\"icon\":\"http://localhost:8000/uploads/provider/20170418095547.jpg\",\"email\":\"kennel@si-kw.com\",\"latitude\":\"29.31166\",\"start\":\"04/18/2017\",\"end\":\"04/18/2018\",\"longitude\":\"47.48176\",\"contact\":\"965-12312312\",\"website\":\"\",\"facebook\":\"\",\"twitter\":\"\",\"instagram\":\"\",\"status\":1,\"total_cancelled\":0,\"total_booked\":0,\"stars\":0,\"count_votes\":0,\"time\":[{\"Start_time\":\"08:00:00\",\"End_time\":\"20:00:00\"}],\"breed_id\":[1,2],\"rate\":[{\"count\":0,\"average_rate\":null}],\"areas\":{\"id\":31,\"country_id\":114,\"name\":\"Hawally\",\"name_ar\":\"حولي\",\"status\":1}},{\"id\":26,\"name\":\"PET CARE HOUSE\",\"name_ar\":\"PET HOUSE CARE\",\"ptype\":\"Provider\",\"service_type\":0,\"about\":\"\",\"about_ar\":\"\",\"address\":\"ASDFGH\",\"area\":\"1\",\"photo\":\"\",\"icon\":\"\",\"email\":\"kathak@mxicoders.com\",\"latitude\":\"27.6648\",\"start\":\"05/25/2017\",\"end\":\"05/25/2018\",\"longitude\":\"-81.5309\",\"contact\":\"965-\",\"website\":\"\",\"facebook\":\"\",\"twitter\":\"\",\"instagram\":\"\",\"status\":1,\"total_cancelled\":0,\"total_booked\":0,\"stars\":10,\"count_votes\":2,\"time\":[{\"Start_time\":\"08:00:00\",\"End_time\":\"20:00:00\"}],\"breed_id\":[1,2],\"rate\":[{\"count\":2,\"average_rate\":\"5.0000\"}],\"areas\":{\"id\":1,\"country_id\":114,\"name\":\"Abdullah Al-Salem\",\"name_ar\":\"عبدالله السالم \",\"status\":1}},{\"id\":27,\"name\":\"Zahur Kennel Service\",\"name_ar\":\"Zahur Kennel Service\",\"ptype\":\"Provider\",\"service_type\":2,\"about\":\"Kennel services \\r\\nGroomer services\\r\\nVeterinary services\\r\\n\",\"about_ar\":\"Kennel services \\r\\nGroomer services\\r\\nVeterinary services\\r\\n\",\"address\":\"hawalli\",\"area\":\"31\",\"photo\":\"http://localhost:8000/uploads/provider/20170530142536.png\",\"icon\":\"http://localhost:8000/uploads/provider/20170530142536.png\",\"email\":\"zahursupport@keenl.com\",\"latitude\":\"29.3081\",\"start\":\"05/30/2017\",\"end\":\"05/30/2018\",\"longitude\":\"48.0668\",\"contact\":\"965-69901557\",\"website\":\"\",\"facebook\":\"\",\"twitter\":\"\",\"instagram\":\"\",\"status\":1,\"total_cancelled\":0,\"total_booked\":0,\"stars\":6,\"count_votes\":2,\"time\":[{\"Start_time\":\"08:00:00\",\"End_time\":\"20:00:00\"}],\"breed_id\":[2],\"rate\":[{\"count\":9,\"average_rate\":\"3.3333\"}],\"areas\":{\"id\":31,\"country_id\":114,\"name\":\"Hawally\",\"name_ar\":\"حولي\",\"status\":1}},{\"id\":28,\"name\":\"QA Provider\",\"name_ar\":\"QA Provider\",\"ptype\":\"Provider\",\"service_type\":2,\"about\":\"QA Provider offers - vet, groomer, walker, trainer, kennel\",\"about_ar\":\"QA Provider offers - vet, groomer, walker, trainer, kennel\",\"address\":\"Kuwait city\",\"area\":\"1\",\"photo\":\"http://localhost:8000/uploads/provider/20170712101713.png\",\"icon\":\"http://localhost:8000/uploads/provider/20170712101713.png\",\"email\":\"qa@si-kw.com\",\"latitude\":\"27.6648\",\"start\":\"05/25/2017\",\"end\":\"05/30/2018\",\"longitude\":\"-81.5309\",\"contact\":\"965-6969685\",\"website\":\"www.test\",\"facebook\":\"www.facebook.com\",\"twitter\":\"www.twitter.com\",\"instagram\":\"www.instagram.com\",\"status\":1,\"total_cancelled\":0,\"total_booked\":0,\"stars\":10,\"count_votes\":2,\"time\":[{\"Start_time\":\"08:00:00\",\"End_time\":\"20:00:00\"}],\"breed_id\":[2],\"rate\":[{\"count\":0,\"average_rate\":null}],\"areas\":{\"id\":1,\"country_id\":114,\"name\":\"Abdullah Al-Salem\",\"name_ar\":\"عبدالله السالم \",\"status\":1}},{\"id\":30,\"name\":\"Boarding Services\",\"name_ar\":\"Boarding Services\",\"ptype\":\"Provider\",\"service_type\":0,\"about\":\"xgfcjcvjvkvkbk\",\"about_ar\":\"xnnchcxnxjfvkkh,n\",\"address\":\"Hawalli\",\"area\":\"31\",\"photo\":\"http://localhost:8000/uploads/provider/20170720164258.png\",\"icon\":\"http://localhost:8000/uploads/provider/20170720164258.jpg\",\"email\":\"bs@wiggleapp.co\",\"latitude\":\"29.348546\",\"start\":\"07/15/2017\",\"end\":\"07/15/2018\",\"longitude\":\"48.010939\",\"contact\":\"965-123456\",\"website\":\"\",\"facebook\":\"\",\"twitter\":\"\",\"instagram\":\"\",\"status\":1,\"total_cancelled\":0,\"total_booked\":0,\"stars\":0,\"count_votes\":0,\"time\":[{\"Start_time\":\"08:00:00\",\"End_time\":\"20:00:00\"}],\"breed_id\":[1,2],\"rate\":[{\"count\":0,\"average_rate\":null}],\"areas\":{\"id\":31,\"country_id\":114,\"name\":\"Hawally\",\"name_ar\":\"حولي\",\"status\":1}}]}})"} 
[2017-07-25 17:04:52] local.INFO: 127.0.0.1-frontapi/v1/getKennel-Bearer C0Ad6bgDL4sDlY7BwKY5UqzE3eW706OcNCUJFVhDruBID5WJvKbyK6YSZAWD {"request ":[],"response":"[object] (stdClass: {\"status\":0,\"message\":\"Valid Response\",\"message_ar\":\"Valid Response\",\"data\":{\"provider\":[{\"id\":21,\"name\":\"LMH\",\"name_ar\":\"LMH\",\"ptype\":\"Provider\",\"service_type\":0,\"about\":\"dhslkhdal\",\"about_ar\":\"bkbcdksbcks\",\"address\":\"Alrai\",\"area\":\"1\",\"photo\":\"\",\"icon\":\"\",\"email\":\"LMH@wiggleapp.co\",\"latitude\":\"\",\"start\":\"04/11/2017\",\"end\":\"04/11/2018\",\"longitude\":\"\",\"contact\":\"-\",\"website\":\"\",\"facebook\":\"\",\"twitter\":\"\",\"instagram\":\"\",\"status\":1,\"total_cancelled\":0,\"total_booked\":0,\"stars\":0,\"count_votes\":0,\"time\":[{\"Start_time\":\"08:00:00\",\"End_time\":\"20:00:00\"}],\"breed_id\":[1,2],\"rate\":[{\"count\":2,\"average_rate\":\"4.0000\"}],\"areas\":{\"id\":1,\"country_id\":114,\"name\":\"Abdullah Al-Salem\",\"name_ar\":\"عبدالله السالم \",\"status\":1}},{\"id\":22,\"name\":\"vin\",\"name_ar\":\"dev\",\"ptype\":\"Provider\",\"service_type\":0,\"about\":\"vin\",\"about_ar\":\"vin\",\"address\":\"kuwait\",\"area\":\"1\",\"photo\":\"http://localhost:8000/uploads/provider/20170413164646.png\",\"icon\":\"http://localhost:8000/uploads/provider/20170413164646.jpg\",\"email\":\"vnits108@gmail.com\",\"latitude\":\"29.4182\",\"start\":\"04/13/2017\",\"end\":\"11/23/2018\",\"longitude\":\"47.6163\",\"contact\":\"965-9879879879987\",\"website\":\"\",\"facebook\":\"\",\"twitter\":\"\",\"instagram\":\"\",\"status\":1,\"total_cancelled\":0,\"total_booked\":0,\"stars\":0,\"count_votes\":0,\"time\":[{\"Start_time\":\"08:00:00\",\"End_time\":\"20:00:00\"}],\"breed_id\":[1,2],\"rate\":[{\"count\":2,\"average_rate\":\"2.0000\"}],\"areas\":{\"id\":1,\"country_id\":114,\"name\":\"Abdullah Al-Salem\",\"name_ar\":\"عبدالله السالم \",\"status\":1}},{\"id\":23,\"name\":\"Vin Society\",\"name_ar\":\"vin society\",\"ptype\":\"Society\",\"service_type\":0,\"about\":\"Vin Society\",\"about_ar\":\"Vin Society\",\"address\":\"kuwait\",\"area\":\"1\",\"photo\":\"http://localhost:8000/uploads/provider/20170413165008.png\",\"icon\":\"http://localhost:8000/uploads/provider/20170413165008.jpg\",\"email\":\"vnits109@gmail.com\",\"latitude\":\"29.2398\",\"start\":\"04/13/2017\",\"end\":\"04/13/2018\",\"longitude\":\"47.7070\",\"contact\":\"-5456987787\",\"website\":\"\",\"facebook\":\"\",\"twitter\":\"\",\"instagram\":\"\",\"status\":1,\"total_cancelled\":0,\"total_booked\":0,\"stars\":0,\"count_votes\":0,\"time\":[],\"breed_id\":[1,2],\"rate\":[{\"count\":0,\"average_rate\":null}],\"areas\":{\"id\":1,\"country_id\":114,\"name\":\"Abdullah Al-Salem\",\"name_ar\":\"عبدالله السالم \",\"status\":1}},{\"id\":24,\"name\":\"Kennel Provider\",\"name_ar\":\"Kennel Provider\",\"ptype\":\"Provider\",\"service_type\":0,\"about\":\"Kennel Provider\",\"about_ar\":\"Kennel Provider\",\"address\":\"Hawalli\",\"area\":\"31\",\"photo\":\"http://localhost:8000/uploads/provider/20170418095547.jpg\",\"icon\":\"http://localhost:8000/uploads/provider/20170418095547.jpg\",\"email\":\"kennel@si-kw.com\",\"latitude\":\"29.31166\",\"start\":\"04/18/2017\",\"end\":\"04/18/2018\",\"longitude\":\"47.48176\",\"contact\":\"965-12312312\",\"website\":\"\",\"facebook\":\"\",\"twitter\":\"\",\"instagram\":\"\",\"status\":1,\"total_cancelled\":0,\"total_booked\":0,\"stars\":0,\"count_votes\":0,\"time\":[{\"Start_time\":\"08:00:00\",\"End_time\":\"20:00:00\"}],\"breed_id\":[1,2],\"rate\":[{\"count\":0,\"average_rate\":null}],\"areas\":{\"id\":31,\"country_id\":114,\"name\":\"Hawally\",\"name_ar\":\"حولي\",\"status\":1}},{\"id\":26,\"name\":\"PET CARE HOUSE\",\"name_ar\":\"PET HOUSE CARE\",\"ptype\":\"Provider\",\"service_type\":0,\"about\":\"\",\"about_ar\":\"\",\"address\":\"ASDFGH\",\"area\":\"1\",\"photo\":\"\",\"icon\":\"\",\"email\":\"kathak@mxicoders.com\",\"latitude\":\"27.6648\",\"start\":\"05/25/2017\",\"end\":\"05/25/2018\",\"longitude\":\"-81.5309\",\"contact\":\"965-\",\"website\":\"\",\"facebook\":\"\",\"twitter\":\"\",\"instagram\":\"\",\"status\":1,\"total_cancelled\":0,\"total_booked\":0,\"stars\":10,\"count_votes\":2,\"time\":[{\"Start_time\":\"08:00:00\",\"End_time\":\"20:00:00\"}],\"breed_id\":[1,2],\"rate\":[{\"count\":2,\"average_rate\":\"5.0000\"}],\"areas\":{\"id\":1,\"country_id\":114,\"name\":\"Abdullah Al-Salem\",\"name_ar\":\"عبدالله السالم \",\"status\":1}},{\"id\":27,\"name\":\"Zahur Kennel Service\",\"name_ar\":\"Zahur Kennel Service\",\"ptype\":\"Provider\",\"service_type\":2,\"about\":\"Kennel services \\r\\nGroomer services\\r\\nVeterinary services\\r\\n\",\"about_ar\":\"Kennel services \\r\\nGroomer services\\r\\nVeterinary services\\r\\n\",\"address\":\"hawalli\",\"area\":\"31\",\"photo\":\"http://localhost:8000/uploads/provider/20170530142536.png\",\"icon\":\"http://localhost:8000/uploads/provider/20170530142536.png\",\"email\":\"zahursupport@keenl.com\",\"latitude\":\"29.3081\",\"start\":\"05/30/2017\",\"end\":\"05/30/2018\",\"longitude\":\"48.0668\",\"contact\":\"965-69901557\",\"website\":\"\",\"facebook\":\"\",\"twitter\":\"\",\"instagram\":\"\",\"status\":1,\"total_cancelled\":0,\"total_booked\":0,\"stars\":6,\"count_votes\":2,\"time\":[{\"Start_time\":\"08:00:00\",\"End_time\":\"20:00:00\"}],\"breed_id\":[2],\"rate\":[{\"count\":9,\"average_rate\":\"3.3333\"}],\"areas\":{\"id\":31,\"country_id\":114,\"name\":\"Hawally\",\"name_ar\":\"حولي\",\"status\":1}},{\"id\":28,\"name\":\"QA Provider\",\"name_ar\":\"QA Provider\",\"ptype\":\"Provider\",\"service_type\":2,\"about\":\"QA Provider offers - vet, groomer, walker, trainer, kennel\",\"about_ar\":\"QA Provider offers - vet, groomer, walker, trainer, kennel\",\"address\":\"Kuwait city\",\"area\":\"1\",\"photo\":\"http://localhost:8000/uploads/provider/20170712101713.png\",\"icon\":\"http://localhost:8000/uploads/provider/20170712101713.png\",\"email\":\"qa@si-kw.com\",\"latitude\":\"27.6648\",\"start\":\"05/25/2017\",\"end\":\"05/30/2018\",\"longitude\":\"-81.5309\",\"contact\":\"965-6969685\",\"website\":\"www.test\",\"facebook\":\"www.facebook.com\",\"twitter\":\"www.twitter.com\",\"instagram\":\"www.instagram.com\",\"status\":1,\"total_cancelled\":0,\"total_booked\":0,\"stars\":10,\"count_votes\":2,\"time\":[{\"Start_time\":\"08:00:00\",\"End_time\":\"20:00:00\"}],\"breed_id\":[2],\"rate\":[{\"count\":0,\"average_rate\":null}],\"areas\":{\"id\":1,\"country_id\":114,\"name\":\"Abdullah Al-Salem\",\"name_ar\":\"عبدالله السالم \",\"status\":1}},{\"id\":30,\"name\":\"Boarding Services\",\"name_ar\":\"Boarding Services\",\"ptype\":\"Provider\",\"service_type\":0,\"about\":\"xgfcjcvjvkvkbk\",\"about_ar\":\"xnnchcxnxjfvkkh,n\",\"address\":\"Hawalli\",\"area\":\"31\",\"photo\":\"http://localhost:8000/uploads/provider/20170720164258.png\",\"icon\":\"http://localhost:8000/uploads/provider/20170720164258.jpg\",\"email\":\"bs@wiggleapp.co\",\"latitude\":\"29.348546\",\"start\":\"07/15/2017\",\"end\":\"07/15/2018\",\"longitude\":\"48.010939\",\"contact\":\"965-123456\",\"website\":\"\",\"facebook\":\"\",\"twitter\":\"\",\"instagram\":\"\",\"status\":1,\"total_cancelled\":0,\"total_booked\":0,\"stars\":0,\"count_votes\":0,\"time\":[{\"Start_time\":\"08:00:00\",\"End_time\":\"20:00:00\"}],\"breed_id\":[1,2],\"rate\":[{\"count\":0,\"average_rate\":null}],\"areas\":{\"id\":31,\"country_id\":114,\"name\":\"Hawally\",\"name_ar\":\"حولي\",\"status\":1}}]}})"} 
[2017-07-25 17:09:54] local.INFO: 127.0.0.1-frontapi/v1/postServices-Bearer RL1y825npfV62i5Rx4LGgId92BjMt6PCtQmqzuus8unXVvQUjDfzyxVOYahF {"request ":{"------WebKitFormBoundarytlJnpIC4Y14O6fdA\r\nContent-Disposition:_form-data;_name":"\"provider_id\"\r\n\r\n27\r\n------WebKitFormBoundarytlJnpIC4Y14O6fdA\r\nContent-Disposition: form-data; name=\"pet_id\"\r\n\r\n290\r\n------WebKitFormBoundarytlJnpIC4Y14O6fdA--\r\n"},"response":"[object] (stdClass: {\"status\":1,\"message\":\"The type id field is required.\",\"message_ar\":\"Invalid Response\"})"} 
[2017-07-25 17:10:21] local.INFO: 127.0.0.1-frontapi/v1/missYouRequest-Bearer RL1y825npfV62i5Rx4LGgId92BjMt6PCtQmqzuus8unXVvQUjDfzyxVOYahF {"request ":{"------WebKitFormBoundary9Be0pOWT7H7rv68c\r\nContent-Disposition:_form-data;_name":"\"provider_id\"\r\n\r\n27\r\n------WebKitFormBoundary9Be0pOWT7H7rv68c\r\nContent-Disposition: form-data; name=\"pet_id\"\r\n\r\n290\r\n------WebKitFormBoundary9Be0pOWT7H7rv68c--\r\n"},"response":"[object] (stdClass: {\"status\":1,\"message\":\"The provider id field is required.\",\"message_ar\":\"Invalid Response\"})"} 
[2017-07-25 17:10:42] local.INFO: 127.0.0.1-frontapi/v1/missYouRequest-Bearer RL1y825npfV62i5Rx4LGgId92BjMt6PCtQmqzuus8unXVvQUjDfzyxVOYahF {"request ":{"provider_id":"27","pet_id":"290","customer_id":283,"sender":1},"response":"[object] (stdClass: {\"status\":0,\"message\":\"Valid Response\",\"message_ar\":\"Valid Response\"})"} 
