

 =========LOG[2017-07-13 08:27:12] =========



 =========booking : []



 =========value : [1350]



 =========book : {"booking_id":1350,"firstname":"Aditya","title":"Aditya","petname":"Tomi Dog XL MA t","techname":"xyz","servicename":"Dental Appointment","start":"2017-07-13 10:45:00","type_id":1,"end":"2017-07-13 11:45:00","status":0,"bookid":1350,"id":1350,"name":"123 pet","technician_id":42,"provider_id":17,"customer_id":143,"service_id":75,"notes":"","customer_email":"adityabhai@gmail.com","providers_email":"123pet@wiggleapp.co","provider_name":"123 pet","category_image":"","customers_mobile":"965-123245678","pet_id":77,"resources":42,"editable":true}



 =========data : {"order_details":{"Tomi Dog XL MA t":[{"category_image":"images\/category.png","servicename":"Dental Appointment"}]},"customer_name":"Aditya","provider_name":"123 pet","booking_date":"July 13 2017","booking_time":"10:45 am","customers_mobile":"965-123245678"}



 =========LOG[2017-07-13 12:47:46] =========



 =========booking : []



 =========value : [1351,1352]



 =========book : {"booking_id":1351,"firstname":"hamad","title":"hamad","petname":"dooda","techname":"KAthak Dabhi","servicename":"Full Grooming","start":"2017-07-14 08:30:00","type_id":2,"end":"2017-07-14 09:05:00","status":0,"bookid":1351,"id":1351,"name":"PET CARE HOUSE","technician_id":47,"provider_id":26,"customer_id":161,"service_id":84,"notes":"","customer_email":"hamadnajjar@gmail.com","providers_email":"kathak@mxicoders.com","provider_name":"PET CARE HOUSE","category_image":"","customers_mobile":"97460660","pet_id":100,"resources":47,"editable":true}



 =========book : {"booking_id":1352,"firstname":"hamad","title":"hamad","petname":"dooda","techname":"KAthak Dabhi","servicename":"Cardio Training ","start":"2017-07-14 09:15:00","type_id":4,"end":"2017-07-14 09:40:00","status":0,"bookid":1352,"id":1352,"name":"PET CARE HOUSE","technician_id":47,"provider_id":26,"customer_id":161,"service_id":87,"notes":"","customer_email":"hamadnajjar@gmail.com","providers_email":"kathak@mxicoders.com","provider_name":"PET CARE HOUSE","category_image":"","customers_mobile":"97460660","pet_id":100,"resources":47,"editable":true}



 =========data : {"order_details":{"dooda":[{"category_image":"images\/category.png","servicename":"Full Grooming"},{"category_image":"images\/category.png","servicename":"Cardio Training "}]},"customer_name":"hamad","provider_name":"PET CARE HOUSE","booking_date":"July 14 2017","booking_time":"08:30 am","customers_mobile":"97460660"}



 =========LOG[2017-07-13 18:38:29] =========



 =========booking : []



 =========value : [1353]



 =========book : {"booking_id":1353,"firstname":"Aditya","title":"Aditya","petname":"Tomi Dog XL MA t","techname":"1","servicename":"Agility","start":"2017-07-13 19:30:00","type_id":4,"end":"2017-07-13 20:30:00","status":0,"bookid":1353,"id":1353,"name":"123 pet","technician_id":46,"provider_id":17,"customer_id":143,"service_id":81,"notes":"","customer_email":"adityabhai@gmail.com","providers_email":"123pet@wiggleapp.co","provider_name":"123 pet","category_image":"","customers_mobile":"965-123245678","pet_id":77,"resources":46,"editable":true}



 =========data : {"order_details":{"Tomi Dog XL MA t":[{"category_image":"images\/category.png","servicename":"Agility"}]},"customer_name":"Aditya","provider_name":"123 pet","booking_date":"July 13 2017","booking_time":"07:30 pm","customers_mobile":"965-123245678"}



 =========LOG[2017-07-13 18:44:07] =========



 =========booking : []



 =========value : [1354]



 =========book : {"booking_id":1354,"firstname":"Aditya","title":"Aditya","petname":"Tomi Dog XL MA t","techname":"ABC","servicename":"Hair Cut","start":"2017-07-13 19:15:00","type_id":2,"end":"2017-07-13 19:45:00","status":0,"bookid":1354,"id":1354,"name":"123 pet","technician_id":43,"provider_id":17,"customer_id":143,"service_id":68,"notes":"","customer_email":"adityabhai@gmail.com","providers_email":"123pet@wiggleapp.co","provider_name":"123 pet","category_image":"","customers_mobile":"965-123245678","pet_id":77,"resources":43,"editable":true}



 =========data : {"order_details":{"Tomi Dog XL MA t":[{"category_image":"images\/category.png","servicename":"Hair Cut"}]},"customer_name":"Aditya","provider_name":"123 pet","booking_date":"July 13 2017","booking_time":"07:15 pm","customers_mobile":"965-123245678"}



 =========LOG[2017-07-13 18:49:23] =========



 =========booking : []



 =========value : [1355]



 =========book : {"booking_id":1355,"firstname":"Aditya","title":"Aditya","petname":"Tomi Dog XL MA t","techname":"1","servicename":"Agility","start":"2017-07-13 20:30:00","type_id":4,"end":"2017-07-13 21:30:00","status":0,"bookid":1355,"id":1355,"name":"123 pet","technician_id":46,"provider_id":17,"customer_id":143,"service_id":81,"notes":"","customer_email":"adityabhai@gmail.com","providers_email":"123pet@wiggleapp.co","provider_name":"123 pet","category_image":"","customers_mobile":"965-123245678","pet_id":77,"resources":46,"editable":true}



 =========data : {"order_details":{"Tomi Dog XL MA t":[{"category_image":"images\/category.png","servicename":"Agility"}]},"customer_name":"Aditya","provider_name":"123 pet","booking_date":"July 13 2017","booking_time":"08:30 pm","customers_mobile":"965-123245678"}



 =========LOG[2017-07-13 18:53:53] =========



 =========booking : []



 =========value : [1356]



 =========book : {"booking_id":1356,"firstname":"Aditya","title":"Aditya","petname":"Tomi Dog XL MA t","techname":"KAthak Dabhi","servicename":"Full Grooming","start":"2017-07-13 19:30:00","type_id":2,"end":"2017-07-13 20:00:00","status":0,"bookid":1356,"id":1356,"name":"PET CARE HOUSE","technician_id":47,"provider_id":26,"customer_id":143,"service_id":84,"notes":"","customer_email":"adityabhai@gmail.com","providers_email":"kathak@mxicoders.com","provider_name":"PET CARE HOUSE","category_image":"","customers_mobile":"965-123245678","pet_id":77,"resources":47,"editable":true}



 =========data : {"order_details":{"Tomi Dog XL MA t":[{"category_image":"images\/category.png","servicename":"Full Grooming"}]},"customer_name":"Aditya","provider_name":"PET CARE HOUSE","booking_date":"July 13 2017","booking_time":"07:30 pm","customers_mobile":"965-123245678"}



 =========LOG[2017-07-13 19:08:18] =========



 =========booking : []



 =========value : [1357]



 =========book : {"booking_id":1357,"firstname":"bhavin","title":"bhavin","petname":"pet3","techname":"1","servicename":"Agility","start":"2017-07-13 21:30:00","type_id":4,"end":"2017-07-13 22:30:00","status":0,"bookid":1357,"id":1357,"name":"123 pet","technician_id":46,"provider_id":17,"customer_id":388,"service_id":81,"notes":"","customer_email":"bhavin.jscope@gmail.com","providers_email":"123pet@wiggleapp.co","provider_name":"123 pet","category_image":"","customers_mobile":"965  0879645312","pet_id":294,"resources":46,"editable":true}



 =========data : {"order_details":{"pet3":[{"category_image":"images\/category.png","servicename":"Agility"}]},"customer_name":"bhavin","provider_name":"123 pet","booking_date":"July 13 2017","booking_time":"09:30 pm","customers_mobile":"965  0879645312"}



 =========LOG[2017-07-13 22:16:40] =========



 =========booking : []



 =========value : [1358,1359,1360]



 =========book : {"booking_id":1358,"firstname":"bhavin","title":"bhavin","petname":"the","techname":"KAthak Dabhi","servicename":"Dental Appointment","start":"2017-07-14 10:30:00","type_id":1,"end":"2017-07-14 11:10:00","status":0,"bookid":1358,"id":1358,"name":"PET CARE HOUSE","technician_id":47,"provider_id":26,"customer_id":388,"service_id":82,"notes":"","customer_email":"bhavin.jscope@gmail.com","providers_email":"kathak@mxicoders.com","provider_name":"PET CARE HOUSE","category_image":"","customers_mobile":"965  0879645312","pet_id":292,"resources":47,"editable":true}



 =========book : {"booking_id":1359,"firstname":"bhavin","title":"bhavin","petname":"the","techname":"KAthak Dabhi","servicename":"Basic Grooming","start":"2017-07-14 11:15:00","type_id":2,"end":"2017-07-14 11:50:00","status":0,"bookid":1359,"id":1359,"name":"PET CARE HOUSE","technician_id":47,"provider_id":26,"customer_id":388,"service_id":85,"notes":"","customer_email":"bhavin.jscope@gmail.com","providers_email":"kathak@mxicoders.com","provider_name":"PET CARE HOUSE","category_image":"20160919054833.jpg","customers_mobile":"965  0879645312","pet_id":292,"resources":47,"editable":true}



 =========book : {"booking_id":1360,"firstname":"bhavin","title":"bhavin","petname":"the","techname":"KAthak Dabhi","servicename":"Training","start":"2017-07-14 12:00:00","type_id":4,"end":"2017-07-14 12:05:00","status":0,"bookid":1360,"id":1360,"name":"PET CARE HOUSE","technician_id":47,"provider_id":26,"customer_id":388,"service_id":86,"notes":"","customer_email":"bhavin.jscope@gmail.com","providers_email":"kathak@mxicoders.com","provider_name":"PET CARE HOUSE","category_image":"","customers_mobile":"965  0879645312","pet_id":292,"resources":47,"editable":true}



 =========data : {"order_details":{"the":[{"category_image":"images\/category.png","servicename":"Dental Appointment"},{"category_image":"uploads\/categories\/20160919054833.jpg","servicename":"Basic Grooming"},{"category_image":"images\/category.png","servicename":"Training"}]},"customer_name":"bhavin","provider_name":"PET CARE HOUSE","booking_date":"July 14 2017","booking_time":"10:30 am","customers_mobile":"965  0879645312"}



 =========LOG[2017-07-13 23:20:47] =========



 =========booking : []



 =========value : [1361,1362,1363]



 =========book : {"booking_id":1361,"firstname":"lamya","title":"lamya","petname":"Dooda","techname":"xyz","servicename":"Vaccination","start":"2017-07-14 10:30:00","type_id":1,"end":"2017-07-14 10:50:00","status":0,"bookid":1361,"id":1361,"name":"123 pet","technician_id":42,"provider_id":17,"customer_id":144,"service_id":76,"notes":"","customer_email":"lamyahayat@hotmail.com","providers_email":"123pet@wiggleapp.co","provider_name":"123 pet","category_image":"","customers_mobile":"99020478","pet_id":79,"resources":42,"editable":true}



 =========book : {"booking_id":1362,"firstname":"lamya","title":"lamya","petname":"Dooda","techname":"ABC","servicename":"Nail Clipping","start":"2017-07-14 11:00:00","type_id":2,"end":"2017-07-14 11:20:00","status":0,"bookid":1362,"id":1362,"name":"123 pet","technician_id":43,"provider_id":17,"customer_id":144,"service_id":67,"notes":"","customer_email":"lamyahayat@hotmail.com","providers_email":"123pet@wiggleapp.co","provider_name":"123 pet","category_image":"","customers_mobile":"99020478","pet_id":79,"resources":43,"editable":true}



 =========book : {"booking_id":1363,"firstname":"lamya","title":"lamya","petname":"Dooda","techname":"1","servicename":"Cardio Training ","start":"2017-07-14 11:30:00","type_id":4,"end":"2017-07-14 12:30:00","status":0,"bookid":1363,"id":1363,"name":"123 pet","technician_id":46,"provider_id":17,"customer_id":144,"service_id":79,"notes":"","customer_email":"lamyahayat@hotmail.com","providers_email":"123pet@wiggleapp.co","provider_name":"123 pet","category_image":"","customers_mobile":"99020478","pet_id":79,"resources":46,"editable":true}



 =========data : {"order_details":{"Dooda":[{"category_image":"images\/category.png","servicename":"Vaccination"},{"category_image":"images\/category.png","servicename":"Nail Clipping"},{"category_image":"images\/category.png","servicename":"Cardio Training "}]},"customer_name":"lamya","provider_name":"123 pet","booking_date":"July 14 2017","booking_time":"10:30 am","customers_mobile":"99020478"}



 =========LOG[2017-07-13 23:21:36] =========



 =========booking : []



 =========value : [1364]



 =========book : {"booking_id":1364,"firstname":"lamya","title":"lamya","petname":"Dooda","techname":"ABC","servicename":"Nail Clipping","start":"2017-07-14 11:30:00","type_id":2,"end":"2017-07-14 11:50:00","status":0,"bookid":1364,"id":1364,"name":"123 pet","technician_id":43,"provider_id":17,"customer_id":144,"service_id":67,"notes":"","customer_email":"lamyahayat@hotmail.com","providers_email":"123pet@wiggleapp.co","provider_name":"123 pet","category_image":"","customers_mobile":"99020478","pet_id":79,"resources":43,"editable":true}



 =========data : {"order_details":{"Dooda":[{"category_image":"images\/category.png","servicename":"Nail Clipping"}]},"customer_name":"lamya","provider_name":"123 pet","booking_date":"July 14 2017","booking_time":"11:30 am","customers_mobile":"99020478"}



 =========LOG[2017-07-13 23:25:29] =========



 =========booking : []



 =========value : [1365]



 =========book : {"booking_id":1365,"firstname":"lamya","title":"lamya","petname":"Dooda","techname":"xyz","servicename":"Agility","start":"2017-07-15 11:00:00","type_id":4,"end":"2017-07-15 12:00:00","status":0,"bookid":1365,"id":1365,"name":"123 pet","technician_id":42,"provider_id":17,"customer_id":144,"service_id":81,"notes":"","customer_email":"lamyahayat@hotmail.com","providers_email":"123pet@wiggleapp.co","provider_name":"123 pet","category_image":"","customers_mobile":"99020478","pet_id":79,"resources":42,"editable":true}



 =========data : {"order_details":{"Dooda":[{"category_image":"images\/category.png","servicename":"Agility"}]},"customer_name":"lamya","provider_name":"123 pet","booking_date":"July 15 2017","booking_time":"11:00 am","customers_mobile":"99020478"}

