

 =========LOG[2017-07-20 07:45:05] =========



 =========LOG[2017-07-20 08:07:50] =========



 =========LOG[2017-07-20 08:08:06] =========



 =========LOG[2017-07-20 08:08:15] =========



 =========LOG[2017-07-20 08:08:23] =========



 =========LOG[2017-07-20 08:08:45] =========



 =========LOG[2017-07-20 08:08:47] =========



 =========LOG[2017-07-20 08:25:09] =========

