

 ========= send_push_notification LOG[2017-07-17 09:48:41] =========



 ========= MESSAGE FOR ENGLISH [{"where":{"deviceType":{"$in":["android","ios"]},"customer_id":"143","language":"en"},"data":{"alert":"Your appointment booked successfully","badge":"Increment","sound":"default","customer_id":"143","message_id":"1212"}}] =========



 ========= MESSAGE FOR ARABIC [{"where":{"deviceType":{"$in":["android","ios"]},"customer_id":"143","language":"ar"},"data":{"alert":"\u062a\u0645 \u062d\u062c\u0632 \u0645\u0648\u0639\u062f\u0643 \u0628\u0646\u062c\u0627\u062d","badge":"Increment","sound":"default","customer_id":"143","message_id":"1212"}}] =========



 ========= send_push_notification LOG[2017-07-17 10:17:16] =========



 ========= MESSAGE FOR ENGLISH [{"where":{"deviceType":{"$in":["android","ios"]},"customer_id":"143","language":"en"},"data":{"alert":null,"badge":"Increment","sound":"default","customer_id":"143","message_id":"1375"}}] =========



 ========= MESSAGE FOR ARABIC [{"where":{"deviceType":{"$in":["android","ios"]},"customer_id":"143","language":"ar"},"data":{"alert":null,"badge":"Increment","sound":"default","customer_id":"143","message_id":"1375"}}] =========



 ========= send_push_notification LOG[2017-07-17 10:25:21] =========



 ========= MESSAGE FOR ENGLISH [{"where":{"deviceType":{"$in":["android","ios"]},"customer_id":"120","language":"en"},"data":{"alert":null,"badge":"Increment","sound":"default","customer_id":"120","message_id":"1377"}}] =========



 ========= MESSAGE FOR ARABIC [{"where":{"deviceType":{"$in":["android","ios"]},"customer_id":"120","language":"ar"},"data":{"alert":null,"badge":"Increment","sound":"default","customer_id":"120","message_id":"1377"}}] =========



 ========= send_push_notification LOG[2017-07-17 11:38:09] =========



 ========= MESSAGE FOR ENGLISH [{"where":{"deviceType":{"$in":["android","ios"]},"customer_id":"120","language":"en"},"data":{"alert":null,"badge":"Increment","sound":"default","customer_id":"120","message_id":"1379"}}] =========



 ========= MESSAGE FOR ARABIC [{"where":{"deviceType":{"$in":["android","ios"]},"customer_id":"120","language":"ar"},"data":{"alert":null,"badge":"Increment","sound":"default","customer_id":"120","message_id":"1379"}}] =========



 ========= send_push_notification LOG[2017-07-17 12:15:00] =========



 ========= MESSAGE FOR ENGLISH [{"where":{"deviceType":{"$in":["android","ios"]},"customer_id":"143","language":"en"},"data":{"alert":null,"badge":"Increment","sound":"default","customer_id":"143","message_id":"1381"}}] =========



 ========= MESSAGE FOR ARABIC [{"where":{"deviceType":{"$in":["android","ios"]},"customer_id":"143","language":"ar"},"data":{"alert":null,"badge":"Increment","sound":"default","customer_id":"143","message_id":"1381"}}] =========



 ========= send_push_notification LOG[2017-07-17 13:21:34] =========



 ========= MESSAGE FOR ENGLISH [{"where":{"deviceType":{"$in":["android","ios"]},"customer_id":"283","language":"en"},"data":{"alert":null,"badge":"Increment","sound":"default","customer_id":"283","message_id":"1386"}}] =========



 ========= MESSAGE FOR ARABIC [{"where":{"deviceType":{"$in":["android","ios"]},"customer_id":"283","language":"ar"},"data":{"alert":null,"badge":"Increment","sound":"default","customer_id":"283","message_id":"1386"}}] =========



 ========= send_push_notification LOG[2017-07-17 13:22:08] =========



 ========= MESSAGE FOR ENGLISH [{"where":{"deviceType":{"$in":["android","ios"]},"customer_id":"283","language":"en"},"data":{"alert":null,"badge":"Increment","sound":"default","customer_id":"283","message_id":"1388"}}] =========



 ========= MESSAGE FOR ARABIC [{"where":{"deviceType":{"$in":["android","ios"]},"customer_id":"283","language":"ar"},"data":{"alert":null,"badge":"Increment","sound":"default","customer_id":"283","message_id":"1388"}}] =========



 ========= send_push_notification LOG[2017-07-17 13:23:36] =========



 ========= MESSAGE FOR ENGLISH [{"where":{"deviceType":{"$in":["android","ios"]},"customer_id":"143","language":"en"},"data":{"alert":null,"badge":"Increment","sound":"default","customer_id":"143","message_id":"1390"}}] =========



 ========= MESSAGE FOR ARABIC [{"where":{"deviceType":{"$in":["android","ios"]},"customer_id":"143","language":"ar"},"data":{"alert":null,"badge":"Increment","sound":"default","customer_id":"143","message_id":"1390"}}] =========



 ========= send_push_notification LOG[2017-07-17 13:24:12] =========



 ========= MESSAGE FOR ENGLISH [{"where":{"deviceType":{"$in":["android","ios"]},"customer_id":"143","language":"en"},"data":{"alert":"Your appointment booked successfully","badge":"Increment","sound":"default","customer_id":"143","message_id":"1381"}}] =========



 ========= MESSAGE FOR ARABIC [{"where":{"deviceType":{"$in":["android","ios"]},"customer_id":"143","language":"ar"},"data":{"alert":"\u062a\u0645 \u062d\u062c\u0632 \u0645\u0648\u0639\u062f\u0643 \u0628\u0646\u062c\u0627\u062d","badge":"Increment","sound":"default","customer_id":"143","message_id":"1381"}}] =========



 ========= send_push_notification LOG[2017-07-17 13:24:32] =========



 ========= MESSAGE FOR ENGLISH [{"where":{"deviceType":{"$in":["android","ios"]},"customer_id":"143","language":"en"},"data":{"alert":null,"badge":"Increment","sound":"default","customer_id":"143","message_id":"1376"}}] =========



 ========= MESSAGE FOR ARABIC [{"where":{"deviceType":{"$in":["android","ios"]},"customer_id":"143","language":"ar"},"data":{"alert":null,"badge":"Increment","sound":"default","customer_id":"143","message_id":"1376"}}] =========



 ========= send_push_notification LOG[2017-07-17 13:24:40] =========



 ========= MESSAGE FOR ENGLISH [{"where":{"deviceType":{"$in":["android","ios"]},"customer_id":"143","language":"en"},"data":{"alert":"Your appointment booked successfully","badge":"Increment","sound":"default","customer_id":"143","message_id":"1376"}}] =========



 ========= MESSAGE FOR ARABIC [{"where":{"deviceType":{"$in":["android","ios"]},"customer_id":"143","language":"ar"},"data":{"alert":"\u062a\u0645 \u062d\u062c\u0632 \u0645\u0648\u0639\u062f\u0643 \u0628\u0646\u062c\u0627\u062d","badge":"Increment","sound":"default","customer_id":"143","message_id":"1376"}}] =========



 ========= send_push_notification LOG[2017-07-17 13:52:07] =========



 ========= MESSAGE FOR ENGLISH [{"where":{"deviceType":{"$in":["android","ios"]},"customer_id":"143","language":"en"},"data":{"alert":null,"badge":"Increment","sound":"default","customer_id":"143","message_id":"1391"}}] =========



 ========= MESSAGE FOR ARABIC [{"where":{"deviceType":{"$in":["android","ios"]},"customer_id":"143","language":"ar"},"data":{"alert":null,"badge":"Increment","sound":"default","customer_id":"143","message_id":"1391"}}] =========



 ========= send_push_notification LOG[2017-07-17 13:56:10] =========



 ========= MESSAGE FOR ENGLISH [{"where":{"deviceType":{"$in":["android","ios"]},"customer_id":"143","language":"en"},"data":{"alert":null,"badge":"Increment","sound":"default","customer_id":"143","message_id":"1392"}}] =========



 ========= MESSAGE FOR ARABIC [{"where":{"deviceType":{"$in":["android","ios"]},"customer_id":"143","language":"ar"},"data":{"alert":null,"badge":"Increment","sound":"default","customer_id":"143","message_id":"1392"}}] =========



 ========= send_push_notification LOG[2017-07-17 14:00:40] =========



 ========= MESSAGE FOR ENGLISH [{"where":{"deviceType":{"$in":["android","ios"]},"customer_id":"143","language":"en"},"data":{"alert":null,"badge":"Increment","sound":"default","customer_id":"143","message_id":"1393"}}] =========



 ========= MESSAGE FOR ARABIC [{"where":{"deviceType":{"$in":["android","ios"]},"customer_id":"143","language":"ar"},"data":{"alert":null,"badge":"Increment","sound":"default","customer_id":"143","message_id":"1393"}}] =========



 ========= send_push_notification LOG[2017-07-17 14:01:45] =========



 ========= MESSAGE FOR ENGLISH [{"where":{"deviceType":{"$in":["android","ios"]},"customer_id":"143","language":"en"},"data":{"alert":null,"badge":"Increment","sound":"default","customer_id":"143","message_id":"1394"}}] =========



 ========= MESSAGE FOR ARABIC [{"where":{"deviceType":{"$in":["android","ios"]},"customer_id":"143","language":"ar"},"data":{"alert":null,"badge":"Increment","sound":"default","customer_id":"143","message_id":"1394"}}] =========



 ========= send_push_notification LOG[2017-07-17 14:05:20] =========



 ========= MESSAGE FOR ENGLISH [{"where":{"deviceType":{"$in":["android","ios"]},"customer_id":"143","language":"en"},"data":{"alert":null,"badge":"Increment","sound":"default","customer_id":"143","message_id":"1395"}}] =========



 ========= MESSAGE FOR ARABIC [{"where":{"deviceType":{"$in":["android","ios"]},"customer_id":"143","language":"ar"},"data":{"alert":null,"badge":"Increment","sound":"default","customer_id":"143","message_id":"1395"}}] =========



 ========= send_push_notification LOG[2017-07-17 14:08:41] =========



 ========= MESSAGE FOR ENGLISH [{"where":{"deviceType":{"$in":["android","ios"]},"customer_id":"143","language":"en"},"data":{"alert":"Your appointment booked successfully","badge":"Increment","sound":"default","customer_id":"143","message_id":"1396"}}] =========



 ========= MESSAGE FOR ARABIC [{"where":{"deviceType":{"$in":["android","ios"]},"customer_id":"143","language":"ar"},"data":{"alert":"\u062a\u0645 \u062d\u062c\u0632 \u0645\u0648\u0639\u062f\u0643 \u0628\u0646\u062c\u0627\u062d","badge":"Increment","sound":"default","customer_id":"143","message_id":"1396"}}] =========



 ========= send_push_notification LOG[2017-07-17 14:39:41] =========



 ========= MESSAGE FOR ENGLISH [{"where":{"deviceType":{"$in":["android","ios"]},"customer_id":"143","language":"en"},"data":{"alert":null,"badge":"Increment","sound":"default","customer_id":"143","message_id":"1397"}}] =========



 ========= MESSAGE FOR ARABIC [{"where":{"deviceType":{"$in":["android","ios"]},"customer_id":"143","language":"ar"},"data":{"alert":null,"badge":"Increment","sound":"default","customer_id":"143","message_id":"1397"}}] =========



 ========= send_push_notification LOG[2017-07-17 14:41:00] =========



 ========= MESSAGE FOR ENGLISH [{"where":{"deviceType":{"$in":["android","ios"]},"customer_id":"143","language":"en"},"data":{"alert":null,"badge":"Increment","sound":"default","customer_id":"143","message_id":"1398"}}] =========



 ========= MESSAGE FOR ARABIC [{"where":{"deviceType":{"$in":["android","ios"]},"customer_id":"143","language":"ar"},"data":{"alert":null,"badge":"Increment","sound":"default","customer_id":"143","message_id":"1398"}}] =========



 ========= send_push_notification LOG[2017-07-17 14:44:58] =========



 ========= MESSAGE FOR ENGLISH [{"where":{"deviceType":{"$in":["android","ios"]},"customer_id":"388","language":"en"},"data":{"alert":null,"badge":"Increment","sound":"default","customer_id":"388","message_id":"1399"}}] =========



 ========= MESSAGE FOR ARABIC [{"where":{"deviceType":{"$in":["android","ios"]},"customer_id":"388","language":"ar"},"data":{"alert":null,"badge":"Increment","sound":"default","customer_id":"388","message_id":"1399"}}] =========



 ========= send_push_notification LOG[2017-07-17 15:10:05] =========



 ========= MESSAGE FOR ENGLISH [{"where":{"deviceType":{"$in":["android","ios"]},"customer_id":"388","language":"en"},"data":{"alert":null,"badge":"Increment","sound":"default","customer_id":"388","message_id":"1400"}}] =========



 ========= MESSAGE FOR ARABIC [{"where":{"deviceType":{"$in":["android","ios"]},"customer_id":"388","language":"ar"},"data":{"alert":null,"badge":"Increment","sound":"default","customer_id":"388","message_id":"1400"}}] =========



 ========= send_push_notification LOG[2017-07-17 15:14:00] =========



 ========= MESSAGE FOR ENGLISH [{"where":{"deviceType":{"$in":["android","ios"]},"customer_id":"388","language":"en"},"data":{"alert":null,"badge":"Increment","sound":"default","customer_id":"388","message_id":"1401"}}] =========



 ========= MESSAGE FOR ARABIC [{"where":{"deviceType":{"$in":["android","ios"]},"customer_id":"388","language":"ar"},"data":{"alert":null,"badge":"Increment","sound":"default","customer_id":"388","message_id":"1401"}}] =========



 ========= send_push_notification LOG[2017-07-17 15:19:31] =========



 ========= MESSAGE FOR ENGLISH [{"where":{"deviceType":{"$in":["android","ios"]},"customer_id":"388","language":"en"},"data":{"alert":null,"badge":"Increment","sound":"default","customer_id":"388","message_id":"1402"}}] =========



 ========= MESSAGE FOR ARABIC [{"where":{"deviceType":{"$in":["android","ios"]},"customer_id":"388","language":"ar"},"data":{"alert":null,"badge":"Increment","sound":"default","customer_id":"388","message_id":"1402"}}] =========



 ========= send_push_notification LOG[2017-07-17 15:40:03] =========



 ========= MESSAGE FOR ENGLISH [{"where":{"deviceType":{"$in":["android","ios"]},"customer_id":"143","language":"en"},"data":{"alert":"Your surrender request approved successfully","badge":"Increment","sound":"default","customer_id":"143","message_id":"51"}}] =========



 ========= MESSAGE FOR ARABIC [{"where":{"deviceType":{"$in":["android","ios"]},"customer_id":"143","language":"ar"},"data":{"alert":"\u062a\u0645\u062a \u0627\u0644\u0645\u0648\u0627\u0641\u0642\u0629 \u0639\u0644\u0649 \u0637\u0644\u0628 \u0627\u0644\u062a\u0633\u0644\u064a\u0645 \u0628\u0646\u062c\u0627\u062d","badge":"Increment","sound":"default","customer_id":"143","message_id":"51"}}] =========



 ========= send_push_notification LOG[2017-07-17 15:40:04] =========



 ========= MESSAGE FOR ENGLISH [{"where":{"deviceType":{"$in":["android","ios"]},"customer_id":"143","language":"en"},"data":{"alert":"Your surrender request approved successfully","badge":"Increment","sound":"default","customer_id":"143","message_id":"51"}}] =========



 ========= MESSAGE FOR ARABIC [{"where":{"deviceType":{"$in":["android","ios"]},"customer_id":"143","language":"ar"},"data":{"alert":"\u062a\u0645\u062a \u0627\u0644\u0645\u0648\u0627\u0641\u0642\u0629 \u0639\u0644\u0649 \u0637\u0644\u0628 \u0627\u0644\u062a\u0633\u0644\u064a\u0645 \u0628\u0646\u062c\u0627\u062d","badge":"Increment","sound":"default","customer_id":"143","message_id":"51"}}] =========



 ========= send_push_notification LOG[2017-07-17 15:40:04] =========



 ========= MESSAGE FOR ENGLISH [{"where":{"deviceType":{"$in":["android","ios"]},"customer_id":"143","language":"en"},"data":{"alert":"Your surrender request approved successfully","badge":"Increment","sound":"default","customer_id":"143","message_id":"51"}}] =========



 ========= MESSAGE FOR ARABIC [{"where":{"deviceType":{"$in":["android","ios"]},"customer_id":"143","language":"ar"},"data":{"alert":"\u062a\u0645\u062a \u0627\u0644\u0645\u0648\u0627\u0641\u0642\u0629 \u0639\u0644\u0649 \u0637\u0644\u0628 \u0627\u0644\u062a\u0633\u0644\u064a\u0645 \u0628\u0646\u062c\u0627\u062d","badge":"Increment","sound":"default","customer_id":"143","message_id":"51"}}] =========



 ========= send_push_notification LOG[2017-07-17 15:40:04] =========



 ========= MESSAGE FOR ENGLISH [{"where":{"deviceType":{"$in":["android","ios"]},"customer_id":"143","language":"en"},"data":{"alert":"Your surrender request approved successfully","badge":"Increment","sound":"default","customer_id":"143","message_id":"51"}}] =========



 ========= MESSAGE FOR ARABIC [{"where":{"deviceType":{"$in":["android","ios"]},"customer_id":"143","language":"ar"},"data":{"alert":"\u062a\u0645\u062a \u0627\u0644\u0645\u0648\u0627\u0641\u0642\u0629 \u0639\u0644\u0649 \u0637\u0644\u0628 \u0627\u0644\u062a\u0633\u0644\u064a\u0645 \u0628\u0646\u062c\u0627\u062d","badge":"Increment","sound":"default","customer_id":"143","message_id":"51"}}] =========



 ========= send_push_notification LOG[2017-07-17 15:40:04] =========



 ========= MESSAGE FOR ENGLISH [{"where":{"deviceType":{"$in":["android","ios"]},"customer_id":"143","language":"en"},"data":{"alert":"Your surrender request approved successfully","badge":"Increment","sound":"default","customer_id":"143","message_id":"51"}}] =========



 ========= MESSAGE FOR ARABIC [{"where":{"deviceType":{"$in":["android","ios"]},"customer_id":"143","language":"ar"},"data":{"alert":"\u062a\u0645\u062a \u0627\u0644\u0645\u0648\u0627\u0641\u0642\u0629 \u0639\u0644\u0649 \u0637\u0644\u0628 \u0627\u0644\u062a\u0633\u0644\u064a\u0645 \u0628\u0646\u062c\u0627\u062d","badge":"Increment","sound":"default","customer_id":"143","message_id":"51"}}] =========



 ========= send_push_notification LOG[2017-07-17 15:40:04] =========



 ========= MESSAGE FOR ENGLISH [{"where":{"deviceType":{"$in":["android","ios"]},"customer_id":"143","language":"en"},"data":{"alert":"Your surrender request approved successfully","badge":"Increment","sound":"default","customer_id":"143","message_id":"51"}}] =========



 ========= MESSAGE FOR ARABIC [{"where":{"deviceType":{"$in":["android","ios"]},"customer_id":"143","language":"ar"},"data":{"alert":"\u062a\u0645\u062a \u0627\u0644\u0645\u0648\u0627\u0641\u0642\u0629 \u0639\u0644\u0649 \u0637\u0644\u0628 \u0627\u0644\u062a\u0633\u0644\u064a\u0645 \u0628\u0646\u062c\u0627\u062d","badge":"Increment","sound":"default","customer_id":"143","message_id":"51"}}] =========



 ========= send_push_notification LOG[2017-07-17 15:40:08] =========



 ========= MESSAGE FOR ENGLISH [{"where":{"deviceType":{"$in":["android","ios"]},"customer_id":"143","language":"en"},"data":{"alert":"Your surrender request approved successfully","badge":"Increment","sound":"default","customer_id":"143","message_id":"51"}}] =========



 ========= MESSAGE FOR ARABIC [{"where":{"deviceType":{"$in":["android","ios"]},"customer_id":"143","language":"ar"},"data":{"alert":"\u062a\u0645\u062a \u0627\u0644\u0645\u0648\u0627\u0641\u0642\u0629 \u0639\u0644\u0649 \u0637\u0644\u0628 \u0627\u0644\u062a\u0633\u0644\u064a\u0645 \u0628\u0646\u062c\u0627\u062d","badge":"Increment","sound":"default","customer_id":"143","message_id":"51"}}] =========



 ========= send_push_notification LOG[2017-07-17 15:40:51] =========



 ========= MESSAGE FOR ENGLISH [{"where":{"deviceType":{"$in":["android","ios"]},"customer_id":"143","language":"en"},"data":{"alert":"Your surrender request approved successfully","badge":"Increment","sound":"default","customer_id":"143","message_id":"50"}}] =========



 ========= MESSAGE FOR ARABIC [{"where":{"deviceType":{"$in":["android","ios"]},"customer_id":"143","language":"ar"},"data":{"alert":"\u062a\u0645\u062a \u0627\u0644\u0645\u0648\u0627\u0641\u0642\u0629 \u0639\u0644\u0649 \u0637\u0644\u0628 \u0627\u0644\u062a\u0633\u0644\u064a\u0645 \u0628\u0646\u062c\u0627\u062d","badge":"Increment","sound":"default","customer_id":"143","message_id":"50"}}] =========



 ========= send_push_notification LOG[2017-07-17 15:40:57] =========



 ========= MESSAGE FOR ENGLISH [{"where":{"deviceType":{"$in":["android","ios"]},"customer_id":"143","language":"en"},"data":{"alert":"Your surrender request approved successfully","badge":"Increment","sound":"default","customer_id":"143","message_id":"50"}}] =========



 ========= MESSAGE FOR ARABIC [{"where":{"deviceType":{"$in":["android","ios"]},"customer_id":"143","language":"ar"},"data":{"alert":"\u062a\u0645\u062a \u0627\u0644\u0645\u0648\u0627\u0641\u0642\u0629 \u0639\u0644\u0649 \u0637\u0644\u0628 \u0627\u0644\u062a\u0633\u0644\u064a\u0645 \u0628\u0646\u062c\u0627\u062d","badge":"Increment","sound":"default","customer_id":"143","message_id":"50"}}] =========



 ========= send_push_notification LOG[2017-07-17 15:40:57] =========



 ========= MESSAGE FOR ENGLISH [{"where":{"deviceType":{"$in":["android","ios"]},"customer_id":"143","language":"en"},"data":{"alert":"Your surrender request approved successfully","badge":"Increment","sound":"default","customer_id":"143","message_id":"50"}}] =========



 ========= MESSAGE FOR ARABIC [{"where":{"deviceType":{"$in":["android","ios"]},"customer_id":"143","language":"ar"},"data":{"alert":"\u062a\u0645\u062a \u0627\u0644\u0645\u0648\u0627\u0641\u0642\u0629 \u0639\u0644\u0649 \u0637\u0644\u0628 \u0627\u0644\u062a\u0633\u0644\u064a\u0645 \u0628\u0646\u062c\u0627\u062d","badge":"Increment","sound":"default","customer_id":"143","message_id":"50"}}] =========



 ========= send_push_notification LOG[2017-07-17 15:41:52] =========



 ========= MESSAGE FOR ENGLISH [{"where":{"deviceType":{"$in":["android","ios"]},"customer_id":"143","language":"en"},"data":{"alert":"Your surrender request approved successfully","badge":"Increment","sound":"default","customer_id":"143","message_id":"48"}}] =========



 ========= MESSAGE FOR ARABIC [{"where":{"deviceType":{"$in":["android","ios"]},"customer_id":"143","language":"ar"},"data":{"alert":"\u062a\u0645\u062a \u0627\u0644\u0645\u0648\u0627\u0641\u0642\u0629 \u0639\u0644\u0649 \u0637\u0644\u0628 \u0627\u0644\u062a\u0633\u0644\u064a\u0645 \u0628\u0646\u062c\u0627\u062d","badge":"Increment","sound":"default","customer_id":"143","message_id":"48"}}] =========



 ========= send_push_notification LOG[2017-07-17 15:41:53] =========



 ========= MESSAGE FOR ENGLISH [{"where":{"deviceType":{"$in":["android","ios"]},"customer_id":"143","language":"en"},"data":{"alert":"Your surrender request approved successfully","badge":"Increment","sound":"default","customer_id":"143","message_id":"48"}}] =========



 ========= MESSAGE FOR ARABIC [{"where":{"deviceType":{"$in":["android","ios"]},"customer_id":"143","language":"ar"},"data":{"alert":"\u062a\u0645\u062a \u0627\u0644\u0645\u0648\u0627\u0641\u0642\u0629 \u0639\u0644\u0649 \u0637\u0644\u0628 \u0627\u0644\u062a\u0633\u0644\u064a\u0645 \u0628\u0646\u062c\u0627\u062d","badge":"Increment","sound":"default","customer_id":"143","message_id":"48"}}] =========



 ========= send_push_notification LOG[2017-07-17 15:41:53] =========



 ========= MESSAGE FOR ENGLISH [{"where":{"deviceType":{"$in":["android","ios"]},"customer_id":"143","language":"en"},"data":{"alert":"Your surrender request approved successfully","badge":"Increment","sound":"default","customer_id":"143","message_id":"48"}}] =========



 ========= MESSAGE FOR ARABIC [{"where":{"deviceType":{"$in":["android","ios"]},"customer_id":"143","language":"ar"},"data":{"alert":"\u062a\u0645\u062a \u0627\u0644\u0645\u0648\u0627\u0641\u0642\u0629 \u0639\u0644\u0649 \u0637\u0644\u0628 \u0627\u0644\u062a\u0633\u0644\u064a\u0645 \u0628\u0646\u062c\u0627\u062d","badge":"Increment","sound":"default","customer_id":"143","message_id":"48"}}] =========



 ========= send_push_notification LOG[2017-07-17 16:08:45] =========



 ========= MESSAGE FOR ENGLISH [{"where":{"deviceType":{"$in":["android","ios"]},"customer_id":"143","language":"en"},"data":{"alert":null,"badge":"Increment","sound":"default","customer_id":"143","message_id":"1403"}}] =========



 ========= MESSAGE FOR ARABIC [{"where":{"deviceType":{"$in":["android","ios"]},"customer_id":"143","language":"ar"},"data":{"alert":null,"badge":"Increment","sound":"default","customer_id":"143","message_id":"1403"}}] =========



 ========= send_push_notification LOG[2017-07-17 16:10:45] =========



 ========= MESSAGE FOR ENGLISH [{"where":{"deviceType":{"$in":["android","ios"]},"customer_id":"143","language":"en"},"data":{"alert":null,"badge":"Increment","sound":"default","customer_id":"143","message_id":"1404"}}] =========



 ========= MESSAGE FOR ARABIC [{"where":{"deviceType":{"$in":["android","ios"]},"customer_id":"143","language":"ar"},"data":{"alert":null,"badge":"Increment","sound":"default","customer_id":"143","message_id":"1404"}}] =========



 ========= send_push_notification LOG[2017-07-17 16:11:26] =========



 ========= MESSAGE FOR ENGLISH [{"where":{"deviceType":{"$in":["android","ios"]},"customer_id":"143","language":"en"},"data":{"alert":"Your appointment booked successfully","badge":"Increment","sound":"default","customer_id":"143","message_id":"1405"}}] =========



 ========= MESSAGE FOR ARABIC [{"where":{"deviceType":{"$in":["android","ios"]},"customer_id":"143","language":"ar"},"data":{"alert":"\u062a\u0645 \u062d\u062c\u0632 \u0645\u0648\u0639\u062f\u0643 \u0628\u0646\u062c\u0627\u062d","badge":"Increment","sound":"default","customer_id":"143","message_id":"1405"}}] =========



 ========= send_push_notification LOG[2017-07-17 16:14:59] =========



 ========= MESSAGE FOR ENGLISH [{"where":{"deviceType":{"$in":["android","ios"]},"customer_id":"143","language":"en"},"data":{"alert":null,"badge":"Increment","sound":"default","customer_id":"143","message_id":"1405"}}] =========



 ========= MESSAGE FOR ARABIC [{"where":{"deviceType":{"$in":["android","ios"]},"customer_id":"143","language":"ar"},"data":{"alert":null,"badge":"Increment","sound":"default","customer_id":"143","message_id":"1405"}}] =========



 ========= send_push_notification LOG[2017-07-17 16:15:26] =========



 ========= MESSAGE FOR ENGLISH [{"where":{"deviceType":{"$in":["android","ios"]},"customer_id":"143","language":"en"},"data":{"alert":"Your appointment booked successfully","badge":"Increment","sound":"default","customer_id":"143","message_id":"1405"}}] =========



 ========= MESSAGE FOR ARABIC [{"where":{"deviceType":{"$in":["android","ios"]},"customer_id":"143","language":"ar"},"data":{"alert":"\u062a\u0645 \u062d\u062c\u0632 \u0645\u0648\u0639\u062f\u0643 \u0628\u0646\u062c\u0627\u062d","badge":"Increment","sound":"default","customer_id":"143","message_id":"1405"}}] =========



 ========= send_push_notification LOG[2017-07-17 16:16:22] =========



 ========= MESSAGE FOR ENGLISH [{"where":{"deviceType":{"$in":["android","ios"]},"customer_id":"143","language":"en"},"data":{"alert":"Your appointment booked successfully","badge":"Increment","sound":"default","customer_id":"143","message_id":"1406"}}] =========



 ========= MESSAGE FOR ARABIC [{"where":{"deviceType":{"$in":["android","ios"]},"customer_id":"143","language":"ar"},"data":{"alert":"\u062a\u0645 \u062d\u062c\u0632 \u0645\u0648\u0639\u062f\u0643 \u0628\u0646\u062c\u0627\u062d","badge":"Increment","sound":"default","customer_id":"143","message_id":"1406"}}] =========



 ========= send_push_notification LOG[2017-07-17 16:26:57] =========



 ========= MESSAGE FOR ENGLISH [{"where":{"deviceType":{"$in":["android","ios"]},"customer_id":"143","language":"en"},"data":{"alert":null,"badge":"Increment","sound":"default","customer_id":"143","message_id":"1406"}}] =========



 ========= MESSAGE FOR ARABIC [{"where":{"deviceType":{"$in":["android","ios"]},"customer_id":"143","language":"ar"},"data":{"alert":null,"badge":"Increment","sound":"default","customer_id":"143","message_id":"1406"}}] =========



 ========= send_push_notification LOG[2017-07-17 16:27:17] =========



 ========= MESSAGE FOR ENGLISH [{"where":{"deviceType":{"$in":["android","ios"]},"customer_id":"143","language":"en"},"data":{"alert":"Your appointment booked successfully","badge":"Increment","sound":"default","customer_id":"143","message_id":"1406"}}] =========



 ========= MESSAGE FOR ARABIC [{"where":{"deviceType":{"$in":["android","ios"]},"customer_id":"143","language":"ar"},"data":{"alert":"\u062a\u0645 \u062d\u062c\u0632 \u0645\u0648\u0639\u062f\u0643 \u0628\u0646\u062c\u0627\u062d","badge":"Increment","sound":"default","customer_id":"143","message_id":"1406"}}] =========



 ========= send_push_notification LOG[2017-07-17 16:32:43] =========



 ========= MESSAGE FOR ENGLISH [{"where":{"deviceType":{"$in":["android","ios"]},"customer_id":"388","language":"en"},"data":{"alert":"Your appointment booked successfully","badge":"Increment","sound":"default","customer_id":"388","message_id":"1407"}}] =========



 ========= MESSAGE FOR ARABIC [{"where":{"deviceType":{"$in":["android","ios"]},"customer_id":"388","language":"ar"},"data":{"alert":"\u062a\u0645 \u062d\u062c\u0632 \u0645\u0648\u0639\u062f\u0643 \u0628\u0646\u062c\u0627\u062d","badge":"Increment","sound":"default","customer_id":"388","message_id":"1407"}}] =========



 ========= send_push_notification LOG[2017-07-17 16:33:29] =========



 ========= MESSAGE FOR ENGLISH [{"where":{"deviceType":{"$in":["android","ios"]},"customer_id":"388","language":"en"},"data":{"alert":"Your appointment booked successfully","badge":"Increment","sound":"default","customer_id":"388","message_id":"1408"}}] =========



 ========= MESSAGE FOR ARABIC [{"where":{"deviceType":{"$in":["android","ios"]},"customer_id":"388","language":"ar"},"data":{"alert":"\u062a\u0645 \u062d\u062c\u0632 \u0645\u0648\u0639\u062f\u0643 \u0628\u0646\u062c\u0627\u062d","badge":"Increment","sound":"default","customer_id":"388","message_id":"1408"}}] =========



 ========= send_push_notification LOG[2017-07-17 16:34:17] =========



 ========= MESSAGE FOR ENGLISH [{"where":{"deviceType":{"$in":["android","ios"]},"customer_id":"388","language":"en"},"data":{"alert":"Your appointment booked successfully","badge":"Increment","sound":"default","customer_id":"388","message_id":"1409"}}] =========



 ========= MESSAGE FOR ARABIC [{"where":{"deviceType":{"$in":["android","ios"]},"customer_id":"388","language":"ar"},"data":{"alert":"\u062a\u0645 \u062d\u062c\u0632 \u0645\u0648\u0639\u062f\u0643 \u0628\u0646\u062c\u0627\u062d","badge":"Increment","sound":"default","customer_id":"388","message_id":"1409"}}] =========



 ========= send_push_notification LOG[2017-07-17 17:23:18] =========



 ========= MESSAGE FOR ENGLISH [{"where":{"deviceType":{"$in":["android","ios"]},"customer_id":"120","language":"en"},"data":{"alert":"Your appointment booked successfully","badge":"Increment","sound":"default","customer_id":"120","message_id":"1410"}}] =========



 ========= MESSAGE FOR ARABIC [{"where":{"deviceType":{"$in":["android","ios"]},"customer_id":"120","language":"ar"},"data":{"alert":"\u062a\u0645 \u062d\u062c\u0632 \u0645\u0648\u0639\u062f\u0643 \u0628\u0646\u062c\u0627\u062d","badge":"Increment","sound":"default","customer_id":"120","message_id":"1410"}}] =========

