

 =========LOG[2017-07-26 07:57:49] =========



 =========LOG[2017-07-26 09:40:49] =========



 =========LOG[2017-07-26 09:40:57] =========



 =========LOG[2017-07-26 12:54:57] =========



 =========LOG[2017-07-26 12:55:09] =========

