

 =========LOG[2017-07-28 07:45:08] =========



 =========LOG[2017-07-28 07:48:12] =========



 =========LOG[2017-07-28 07:53:25] =========



 =========LOG[2017-07-28 14:34:40] =========



 =========LOG[2017-07-28 14:55:43] =========

